simulation/qsim/final_work.msim.vcd
$comment
	File created using the following command:
		vcd file final_work.msim.vcd -direction
$end
$date
	Mon Sep 05 21:26:14 2022
$end
$version
	ModelSim Version 10.1d
$end
$timescale
	1ps
$end
$scope module final_work_vlg_vec_tst $end
$var reg 1 ! Ck $end
$var reg 4 " instr [3:0] $end
$var reg 1 # N $end
$var reg 1 $ Rst $end
$var reg 1 % Z $end
$var wire 1 & cf_rem $end
$var wire 1 ' cg_ac $end
$var wire 1 ( cg_nz $end
$var wire 1 ) cg_pc $end
$var wire 1 * cg_rdm $end
$var wire 1 + cg_ri $end
$var wire 1 , ctrl_rem $end
$var wire 1 - inc_pc $end
$var wire 1 . read $end
$var wire 1 / write $end
$var wire 1 0 sampler $end
$scope module i1 $end
$var wire 1 1 gnd $end
$var wire 1 2 vcc $end
$var wire 1 3 unknown $end
$var tri1 1 4 devclrn $end
$var tri1 1 5 devpor $end
$var tri1 1 6 devoe $end
$var wire 1 7 cf_rem~output_o $end
$var wire 1 8 ctrl_rem~output_o $end
$var wire 1 9 inc_pc~output_o $end
$var wire 1 : cg_ac~output_o $end
$var wire 1 ; cg_ri~output_o $end
$var wire 1 < cg_pc~output_o $end
$var wire 1 = cg_rdm~output_o $end
$var wire 1 > read~output_o $end
$var wire 1 ? cg_nz~output_o $end
$var wire 1 @ write~output_o $end
$var wire 1 A Ck~input_o $end
$var wire 1 B Ck~inputclkctrl_outclk $end
$var wire 1 C inst|inst2|inst|inst5~0_combout $end
$var wire 1 D Rst~input_o $end
$var wire 1 E Rst~inputclkctrl_outclk $end
$var wire 1 F inst|inst2|inst|inst5~q $end
$var wire 1 G instr[3]~input_o $end
$var wire 1 H instr[0]~input_o $end
$var wire 1 I instr[2]~input_o $end
$var wire 1 J instr[1]~input_o $end
$var wire 1 K inst|inst5~0_combout $end
$var wire 1 L inst|inst2|inst3|inst|inst2|inst~combout $end
$var wire 1 M inst|inst2|inst3|inst5~q $end
$var wire 1 N inst|inst2|inst4|inst|inst2|inst~combout $end
$var wire 1 O inst|inst2|inst4|inst5~q $end
$var wire 1 P inst|inst58~2_combout $end
$var wire 1 Q inst|inst2|inst4|inst1~0_combout $end
$var wire 1 R inst|inst58~1_combout $end
$var wire 1 S Z~input_o $end
$var wire 1 T N~input_o $end
$var wire 1 U inst|inst58~0_combout $end
$var wire 1 V inst|inst58~3_combout $end
$var wire 1 W inst|inst61~0_combout $end
$var wire 1 X inst|inst61~1_combout $end
$var wire 1 Y inst|inst19~0_combout $end
$var wire 1 Z inst|inst19~1_combout $end
$var wire 1 [ inst|inst19~2_combout $end
$var wire 1 \ inst|inst30~0_combout $end
$var wire 1 ] inst|inst29~0_combout $end
$var wire 1 ^ inst|inst27~combout $end
$var wire 1 _ inst|inst|inst~0_combout $end
$var wire 1 ` inst|inst3|inst7~0_combout $end
$var wire 1 a inst|inst35~combout $end
$var wire 1 b inst|inst49~2_combout $end
$var wire 1 c inst|inst49~3_combout $end
$var wire 1 d inst|inst39~0_combout $end
$var wire 1 e inst|inst423~combout $end
$upscope $end
$upscope $end
$enddefinitions $end
#0
$dumpvars
0!
b11 "
0#
1$
0%
1&
0'
0(
0)
0*
0+
1,
0-
0.
0/
x0
01
12
x3
14
15
16
17
18
09
0:
0;
0<
0=
0>
0?
0@
0A
0B
1C
1D
1E
0F
0G
1H
0I
1J
1K
0L
0M
0N
0O
0P
0Q
0R
0S
0T
0U
1V
0W
1X
0Y
0Z
0[
1\
0]
0^
0_
0`
0a
1b
0c
0d
0e
$end
#5000
0$
0D
0E
00
#10000
1!
1A
1B
10
1F
1Z
1P
1L
0C
1c
1>
1.
1[
0X
0V
19
08
07
1-
0,
0&
#20000
0!
0A
0B
00
#30000
1!
1A
1B
10
1M
0F
0b
1C
1_
0[
0c
1;
09
0>
1+
0-
0.
#40000
0!
0A
0B
00
#50000
1!
1A
1B
10
1F
1Q
0P
1N
0L
0C
0_
0;
0+
1X
1V
18
17
1,
1&
#60000
0!
0A
0B
00
#70000
1!
1A
1B
10
1O
0M
0F
1b
1P
0Q
1C
1d
1^
1[
1?
1:
19
1(
1'
1-
1c
0X
0V
0d
0^
1>
08
07
0?
0:
1.
0,
0&
0(
0'
#80000
0!
0A
0B
00
#90000
1!
1A
1B
10
1F
0Z
1L
0C
0c
0>
0.
0[
09
0-
#100000
0!
0A
0B
00
#110000
1!
1A
1B
10
1M
0F
1Z
1C
1c
1>
1.
#120000
0!
0A
0B
00
#130000
1!
1A
1B
10
1F
1Q
0N
0L
0C
0c
0>
0.
1d
1^
1?
1:
1(
1'
#140000
0!
0A
0B
00
#150000
1!
1A
1B
10
0O
0M
0F
0Z
0P
0Q
1C
0d
0^
1[
0?
0:
19
0(
0'
1-
0[
1X
1V
09
18
17
0-
1,
1&
#160000
0!
0A
0B
00
#170000
1!
1A
1B
10
1F
1Z
1P
1L
0C
1c
1>
1.
1[
0X
0V
19
08
07
1-
0,
0&
#180000
0!
0A
0B
00
#190000
1!
1A
1B
10
1M
0F
0b
1C
1_
0[
0c
1;
09
0>
1+
0-
0.
#200000
0!
0A
0B
00
#210000
1!
1A
1B
10
1F
1Q
0P
1N
0L
0C
0_
0;
0+
1X
1V
18
17
1,
1&
#220000
0!
0A
0B
00
#230000
1!
1A
1B
10
1O
0M
0F
1b
1P
0Q
1C
1d
1^
1[
1?
1:
19
1(
1'
1-
1c
0X
0V
0d
0^
1>
08
07
0?
0:
1.
0,
0&
0(
0'
#240000
0!
0A
0B
00
#250000
1!
1A
1B
10
1F
0Z
1L
0C
0c
0>
0.
0[
09
0-
#260000
0!
0A
0B
00
#270000
1!
1A
1B
10
1M
0F
1Z
1C
1c
1>
1.
#280000
0!
0A
0B
00
#290000
1!
1A
1B
10
1F
1Q
0N
0L
0C
0c
0>
0.
1d
1^
1?
1:
1(
1'
#300000
0!
0A
0B
00
#310000
1!
1A
1B
10
0O
0M
0F
0Z
0P
0Q
1C
0d
0^
1[
0?
0:
19
0(
0'
1-
0[
1X
1V
09
18
17
0-
1,
1&
#320000
0!
0A
0B
00
#330000
1!
1A
1B
10
1F
1Z
1P
1L
0C
1c
1>
1.
1[
0X
0V
19
08
07
1-
0,
0&
#340000
0!
0A
0B
00
#350000
1!
1A
1B
10
1M
0F
0b
1C
1_
0[
0c
1;
09
0>
1+
0-
0.
#360000
0!
0A
0B
00
#370000
1!
1A
1B
10
1F
1Q
0P
1N
0L
0C
0_
0;
0+
1X
1V
18
17
1,
1&
#380000
0!
0A
0B
00
#390000
1!
1A
1B
10
1O
0M
0F
1b
1P
0Q
1C
1d
1^
1[
1?
1:
19
1(
1'
1-
1c
0X
0V
0d
0^
1>
08
07
0?
0:
1.
0,
0&
0(
0'
#400000
0!
0A
0B
00
#410000
1!
1A
1B
10
1F
0Z
1L
0C
0c
0>
0.
0[
09
0-
#420000
0!
0A
0B
00
#430000
1!
1A
1B
10
1M
0F
1Z
1C
1c
1>
1.
#440000
0!
0A
0B
00
#450000
1!
1A
1B
10
1F
1Q
0N
0L
0C
0c
0>
0.
1d
1^
1?
1:
1(
1'
#460000
0!
0A
0B
00
#470000
1!
1A
1B
10
0O
0M
0F
0Z
0P
0Q
1C
0d
0^
1[
0?
0:
19
0(
0'
1-
0[
1X
1V
09
18
17
0-
1,
1&
#480000
0!
0A
0B
00
#490000
1!
1A
1B
10
1F
1Z
1P
1L
0C
1c
1>
1.
1[
0X
0V
19
08
07
1-
0,
0&
#500000
0!
0A
0B
00
#510000
1!
1A
1B
10
1M
0F
0b
1C
1_
0[
0c
1;
09
0>
1+
0-
0.
#520000
0!
0A
0B
00
#530000
1!
1A
1B
10
1F
1Q
0P
1N
0L
0C
0_
0;
0+
1X
1V
18
17
1,
1&
#540000
0!
0A
0B
00
#550000
1!
1A
1B
10
1O
0M
0F
1b
1P
0Q
1C
1d
1^
1[
1?
1:
19
1(
1'
1-
1c
0X
0V
0d
0^
1>
08
07
0?
0:
1.
0,
0&
0(
0'
#560000
0!
0A
0B
00
#570000
1!
1A
1B
10
1F
0Z
1L
0C
0c
0>
0.
0[
09
0-
#580000
0!
0A
0B
00
#590000
1!
1A
1B
10
1M
0F
1Z
1C
1c
1>
1.
#600000
0!
0A
0B
00
#610000
1!
1A
1B
10
1F
1Q
0N
0L
0C
0c
0>
0.
1d
1^
1?
1:
1(
1'
#620000
0!
0A
0B
00
#630000
1!
1A
1B
10
0O
0M
0F
0Z
0P
0Q
1C
0d
0^
1[
0?
0:
19
0(
0'
1-
0[
1X
1V
09
18
17
0-
1,
1&
#640000
0!
0A
0B
00
#650000
1!
1A
1B
10
1F
1Z
1P
1L
0C
1c
1>
1.
1[
0X
0V
19
08
07
1-
0,
0&
#660000
0!
0A
0B
00
#670000
1!
1A
1B
10
1M
0F
0b
1C
1_
0[
0c
1;
09
0>
1+
0-
0.
#680000
0!
0A
0B
00
#690000
1!
1A
1B
10
1F
1Q
0P
1N
0L
0C
0_
0;
0+
1X
1V
18
17
1,
1&
#700000
0!
0A
0B
00
#710000
1!
1A
1B
10
1O
0M
0F
1b
1P
0Q
1C
1d
1^
1[
1?
1:
19
1(
1'
1-
1c
0X
0V
0d
0^
1>
08
07
0?
0:
1.
0,
0&
0(
0'
#720000
0!
0A
0B
00
#730000
1!
1A
1B
10
1F
0Z
1L
0C
0c
0>
0.
0[
09
0-
#740000
0!
0A
0B
00
#750000
1!
1A
1B
10
1M
0F
1Z
1C
1c
1>
1.
#760000
0!
0A
0B
00
#770000
1!
1A
1B
10
1F
1Q
0N
0L
0C
0c
0>
0.
1d
1^
1?
1:
1(
1'
#780000
0!
0A
0B
00
#790000
1!
1A
1B
10
0O
0M
0F
0Z
0P
0Q
1C
0d
0^
1[
0?
0:
19
0(
0'
1-
0[
1X
1V
09
18
17
0-
1,
1&
#800000
0!
0A
0B
00
#810000
1!
1A
1B
10
1F
1Z
1P
1L
0C
1c
1>
1.
1[
0X
0V
19
08
07
1-
0,
0&
#820000
0!
0A
0B
00
#830000
1!
1A
1B
10
1M
0F
0b
1C
1_
0[
0c
1;
09
0>
1+
0-
0.
#840000
0!
0A
0B
00
#850000
1!
1A
1B
10
1F
1Q
0P
1N
0L
0C
0_
0;
0+
1X
1V
18
17
1,
1&
#860000
0!
0A
0B
00
#870000
1!
1A
1B
10
1O
0M
0F
1b
1P
0Q
1C
1d
1^
1[
1?
1:
19
1(
1'
1-
1c
0X
0V
0d
0^
1>
08
07
0?
0:
1.
0,
0&
0(
0'
#880000
0!
0A
0B
00
#890000
1!
1A
1B
10
1F
0Z
1L
0C
0c
0>
0.
0[
09
0-
#900000
0!
0A
0B
00
#910000
1!
1A
1B
10
1M
0F
1Z
1C
1c
1>
1.
#920000
0!
0A
0B
00
#930000
1!
1A
1B
10
1F
1Q
0N
0L
0C
0c
0>
0.
1d
1^
1?
1:
1(
1'
#940000
0!
0A
0B
00
#950000
1!
1A
1B
10
0O
0M
0F
0Z
0P
0Q
1C
0d
0^
1[
0?
0:
19
0(
0'
1-
0[
1X
1V
09
18
17
0-
1,
1&
#960000
0!
0A
0B
00
#970000
1!
1A
1B
10
1F
1Z
1P
1L
0C
1c
1>
1.
1[
0X
0V
19
08
07
1-
0,
0&
#980000
0!
0A
0B
00
#990000
1!
1A
1B
10
1M
0F
0b
1C
1_
0[
0c
1;
09
0>
1+
0-
0.
