simulation/qsim/final_work.msim.vcd
$comment
	File created using the following command:
		vcd file final_work.msim.vcd -direction
$end
$date
	Sat Jul 16 00:10:34 2022
$end
$version
	ModelSim Version 10.1d
$end
$timescale
	1ps
$end
$scope module final_work_vlg_vec_tst $end
$var reg 8 ! a [7:0] $end
$var reg 8 " b [7:0] $end
$var reg 3 # c [2:0] $end
$var wire 1 $ bf $end
$var wire 1 % cf $end
$var wire 1 & nf $end
$var wire 1 ' s [7] $end
$var wire 1 ( s [6] $end
$var wire 1 ) s [5] $end
$var wire 1 * s [4] $end
$var wire 1 + s [3] $end
$var wire 1 , s [2] $end
$var wire 1 - s [1] $end
$var wire 1 . s [0] $end
$var wire 1 / vf $end
$var wire 1 0 zf $end
$var wire 1 1 sampler $end
$scope module i1 $end
$var wire 1 2 gnd $end
$var wire 1 3 vcc $end
$var wire 1 4 unknown $end
$var tri1 1 5 devclrn $end
$var tri1 1 6 devpor $end
$var tri1 1 7 devoe $end
$var wire 1 8 cf~output_o $end
$var wire 1 9 nf~output_o $end
$var wire 1 : bf~output_o $end
$var wire 1 ; zf~output_o $end
$var wire 1 < vf~output_o $end
$var wire 1 = s[7]~output_o $end
$var wire 1 > s[6]~output_o $end
$var wire 1 ? s[5]~output_o $end
$var wire 1 @ s[4]~output_o $end
$var wire 1 A s[3]~output_o $end
$var wire 1 B s[2]~output_o $end
$var wire 1 C s[1]~output_o $end
$var wire 1 D s[0]~output_o $end
$var wire 1 E a[7]~input_o $end
$var wire 1 F b[7]~input_o $end
$var wire 1 G a[6]~input_o $end
$var wire 1 H a[3]~input_o $end
$var wire 1 I b[3]~input_o $end
$var wire 1 J a[2]~input_o $end
$var wire 1 K b[0]~input_o $end
$var wire 1 L a[0]~input_o $end
$var wire 1 M a[1]~input_o $end
$var wire 1 N b[1]~input_o $end
$var wire 1 O inst|inst|inst1|inst2~0_combout $end
$var wire 1 P b[2]~input_o $end
$var wire 1 Q inst|inst|inst3|inst2~0_combout $end
$var wire 1 R a[4]~input_o $end
$var wire 1 S inst|inst|inst4|inst2~3_combout $end
$var wire 1 T b[4]~input_o $end
$var wire 1 U inst|inst|inst3|inst2~1_combout $end
$var wire 1 V inst|inst|inst4|inst2~2_combout $end
$var wire 1 W a[5]~input_o $end
$var wire 1 X b[5]~input_o $end
$var wire 1 Y inst|inst|inst5|inst2~0_combout $end
$var wire 1 Z b[6]~input_o $end
$var wire 1 [ inst|inst22~0_combout $end
$var wire 1 \ inst|inst22~1_combout $end
$var wire 1 ] inst|inst6|inst3|inst1|inst~combout $end
$var wire 1 ^ inst|inst6|inst6|inst1|inst~combout $end
$var wire 1 _ c[1]~input_o $end
$var wire 1 ` inst|inst5|inst1|inst2~combout $end
$var wire 1 a inst|inst5|inst3|inst|inst5~0_combout $end
$var wire 1 b inst|inst5|inst3|inst1|inst~combout $end
$var wire 1 c inst|inst5|inst3|inst2~combout $end
$var wire 1 d inst|inst5|inst4|inst2~combout $end
$var wire 1 e inst|inst5|inst5|inst2~combout $end
$var wire 1 f inst|inst5|inst7|inst1|inst5~0_combout $end
$var wire 1 g inst|inst5|inst7|inst1|inst5~combout $end
$var wire 1 h c[0]~input_o $end
$var wire 1 i inst|inst|inst7|inst1|inst5~combout $end
$var wire 1 j inst|inst8|inst8|inst1|inst2~0_combout $end
$var wire 1 k inst|inst8|inst8|inst1|inst2~1_combout $end
$var wire 1 l c[2]~input_o $end
$var wire 1 m inst|inst8|inst8|inst1|inst2~2_combout $end
$var wire 1 n inst|inst8|inst8|inst1|inst2~3_combout $end
$var wire 1 o inst|inst8|inst8|inst1|inst2~4_combout $end
$var wire 1 p inst|inst9|inst22~combout $end
$var wire 1 q inst|inst10~combout $end
$var wire 1 r inst|inst8|inst2|inst1|inst2~10_combout $end
$var wire 1 s inst|inst8|inst2|inst1|inst2~11_combout $end
$var wire 1 t inst|inst8|inst2|inst1|inst2~7_combout $end
$var wire 1 u inst|inst8|inst2|inst1|inst2~8_combout $end
$var wire 1 v inst|inst8|inst2|inst1|inst2~9_combout $end
$var wire 1 w inst|inst6|inst1|inst1|inst~combout $end
$var wire 1 x inst|inst8|inst3|inst1|inst2~4_combout $end
$var wire 1 y inst|inst8|inst3|inst1|inst2~5_combout $end
$var wire 1 z inst|inst8|inst3|inst1|inst2~0_combout $end
$var wire 1 { inst|inst8|inst3|inst1|inst2~1_combout $end
$var wire 1 | inst|inst8|inst3|inst1|inst2~2_combout $end
$var wire 1 } inst|inst8|inst3|inst1|inst2~3_combout $end
$var wire 1 ~ inst|inst6|inst2|inst1|inst~combout $end
$var wire 1 !! inst|inst5|inst3|inst1|inst5~combout $end
$var wire 1 "! inst|inst|inst3|inst1|inst5~combout $end
$var wire 1 #! inst|inst8|inst4|inst1|inst2~0_combout $end
$var wire 1 $! inst|inst8|inst4|inst1|inst2~1_combout $end
$var wire 1 %! inst|inst8|inst4|inst1|inst2~2_combout $end
$var wire 1 &! inst|inst8|inst4|inst1|inst2~3_combout $end
$var wire 1 '! inst|inst8|inst4|inst1|inst2~4_combout $end
$var wire 1 (! inst|inst7|inst15~0_combout $end
$var wire 1 )! inst|inst8|inst5|inst1|inst2~4_combout $end
$var wire 1 *! inst|inst8|inst5|inst1|inst2~5_combout $end
$var wire 1 +! inst|inst8|inst5|inst1|inst2~0_combout $end
$var wire 1 ,! inst|inst8|inst5|inst1|inst2~1_combout $end
$var wire 1 -! inst|inst8|inst5|inst1|inst2~2_combout $end
$var wire 1 .! inst|inst8|inst5|inst1|inst2~3_combout $end
$var wire 1 /! inst|inst8|inst7|inst1|inst2~0_combout $end
$var wire 1 0! inst|inst8|inst7|inst1|inst2~1_combout $end
$var wire 1 1! inst|inst8|inst7|inst1|inst2~2_combout $end
$var wire 1 2! inst|inst8|inst7|inst1|inst2~3_combout $end
$var wire 1 3! inst|inst8|inst7|inst1|inst2~4_combout $end
$var wire 1 4! inst|inst8|inst7|inst1|inst2~5_combout $end
$var wire 1 5! inst|inst8|inst7|inst1|inst2~6_combout $end
$var wire 1 6! inst|inst6|inst4|inst1|inst~combout $end
$var wire 1 7! inst|inst5|inst5|inst1|inst5~combout $end
$var wire 1 8! inst|inst|inst5|inst1|inst5~combout $end
$var wire 1 9! inst|inst8|inst6|inst1|inst2~0_combout $end
$var wire 1 :! inst|inst8|inst6|inst1|inst2~1_combout $end
$var wire 1 ;! inst|inst8|inst6|inst1|inst2~2_combout $end
$var wire 1 <! inst|inst8|inst6|inst1|inst2~3_combout $end
$var wire 1 =! inst|inst8|inst6|inst1|inst2~4_combout $end
$var wire 1 >! inst|inst8|inst|inst1|inst2~0_combout $end
$var wire 1 ?! inst|inst8|inst|inst1|inst2~1_combout $end
$var wire 1 @! inst|inst7|inst15~1_combout $end
$var wire 1 A! inst|inst7|inst15~combout $end
$upscope $end
$upscope $end
$enddefinitions $end
#0
$dumpvars
b11110011 !
b11011100 "
b1 #
0$
1%
0&
1.
1-
1,
0+
1*
0)
0(
0'
1/
00
x1
02
13
x4
15
16
17
18
09
0:
0;
1<
0=
0>
0?
1@
0A
1B
1C
1D
1E
1F
1G
0H
1I
0J
0K
1L
1M
0N
0O
1P
0Q
1R
0S
1T
0U
1V
1W
0X
1Y
1Z
1[
1\
1]
1^
0_
1`
1a
0b
0c
0d
1e
0f
1g
1h
1i
0j
0k
0l
0m
1n
0o
1p
0q
0r
1s
0t
1u
1v
1w
1x
1y
1z
0{
1|
1}
1~
1!!
1"!
0#!
0$!
0%!
1&!
0'!
1(!
1)!
1*!
1+!
0,!
1-!
1.!
1/!
10!
01!
02!
13!
04!
05!
16!
17!
08!
09!
0:!
0;!
1<!
0=!
1>!
0?!
1@!
1A!
$end
#40000
b10110011 !
b10010011 !
b10000011 !
b10001011 !
b10001111 !
b10001101 !
b1011100 "
b11100 "
b111100 "
b101100 "
b100100 "
b100000 "
0P
0I
0T
1X
0Z
0F
0M
1J
1H
0R
0W
0G
01
0!!
1c
0-!
0V
0e
00!
0i
0[
1f
0u
0s
14!
0p
1#!
0)!
1d
18!
0Y
03!
11!
1i
0<
0/
0v
15!
1q
1$!
0*!
07!
04!
0C
1>
1:
0-
1(
1$
05!
0+!
19!
0>
0(
1'!
15!
1:!
1A
1>
1+
1(
0.!
0@
0*
1=!
1?
1)
#80000
b1101 !
b1100 !
b1001100 !
b1011100 !
b1010100 !
b10100000 "
b11100000 "
b11101000 "
1I
1Z
1F
0L
0H
1R
1G
0E
11
0c
10!
0i
1[
1?!
0w
1-!
1)!
14!
0\
0)!
01!
1*!
0D
08
0.
0%
1\
05!
0*!
1+!
18
0>
1%
0(
15!
0+!
1>
1(
1.!
1@
1*
0.!
0@
0*
#120000
b11101010 "
b11101011 "
b11001011 "
b11010100 !
b11010101 !
b10010101 !
b10011101 !
b1001011 "
b1011 "
b11 "
1L
1H
0G
1E
1K
1N
0I
0X
0Z
0F
01
0?!
1w
0`
1O
1c
04!
1i
0[
0>!
1u
1s
0<!
08!
17!
1e
00!
0x
0"!
1Q
1)!
1?!
09!
13!
0g
11!
1D
1.
05!
1v
0y
1U
1S
1*!
0:!
14!
1j
0D
0>
1C
0.
0(
1-
15!
0z
18!
1+!
1k
1>
1(
0=!
05!
0@!
0?
0>
0)
0(
0}
1.!
1o
1@!
0B
1@
1=
19
0,
1*
1'
1&
#160000
b10011001 !
b10011 "
b10001 "
b11001 !
b11000 !
b1011000 !
b1010000 !
b11001 "
0N
1I
1T
0L
0J
0H
1G
0E
11
0u
0s
0O
0c
0)!
1V
0?!
0~
0w
1r
0]
1"!
1!!
0|
1x
0Q
04!
0n
0f
1p
0\
1y
1)!
0d
0*!
1s
0#!
0U
0S
0i
1g
1D
1<
08
1.
1/
0%
0v
15!
0q
1z
1*!
07!
0e
0+!
0$!
0j
0C
1>
0:
0-
1(
0$
1v
1+!
19!
03!
0k
1C
1-
1}
0.!
0'!
1:!
14!
1B
0@
0A
1,
0*
0+
1.!
0o
1@
0=
09
1*
0'
0&
1=!
05!
0p
1?
0>
0<
1)
0(
0/
1q
1:
1$
#200000
b1010010 !
b11101 "
b11100 "
b111100 "
b1010110 !
b101100 "
b11010110 !
b11010111 !
b10010111 !
b10011111 !
b100100 "
0K
1P
0I
0T
1X
1L
1M
1J
1H
0G
1E
01
1>!
0r
1`
0"!
1|
1Q
1c
0)!
1d
0V
1<!
08!
17!
1Y
1?!
1~
1w
1]
1u
0s
04!
0g
1n
1f
1\
0?!
1s
0!!
0x
1U
1S
1)!
0*!
07!
18!
0Y
09!
1i
1j
1g
0D
18
0.
1%
0v
15!
1#!
0y
1*!
08!
1Y
0+!
19!
0:!
0j
1k
1D
0C
1>
1.
0-
1(
1v
1$!
0z
1+!
1:!
0k
1C
1-
0.!
0=!
1o
0@
0?
1=
19
0*
0)
1'
1&
1'!
0}
1.!
1=!
0o
1A
0B
1@
1?
0=
09
1+
0,
1*
1)
0'
0&
#240000
b10111111 !
b10100100 "
b11100100 "
b10111101 !
b11100101 "
b11000101 "
b111101 !
b11001101 "
1K
1I
0X
1Z
1F
0M
1W
0E
11
0>!
0c
0a
1e
10!
0i
1[
0u
0s
0\
1?!
0)!
1"!
1!!
1b
13!
01!
08
0%
1\
0v
0*!
0#!
1c
14!
0D
18
0C
0.
1%
0-
05!
0+!
0$!
1)!
0>
0(
15!
1*!
1>
1(
0.!
0'!
1+!
0(!
0@
0A
0*
0+
1.!
1@
1*
#280000
b101101 !
b101001 !
b11011101 "
b100001 !
b1 !
b10011101 "
b10000001 !
1T
0Z
0J
0H
0R
0W
1E
01
0d
1V
00!
1i
0g
0[
0"!
0!!
1x
0b
0Q
1a
0S
0<!
18!
17!
0Y
0f
1p
07!
0e
11!
1j
1#!
1y
0c
0U
1"!
1!!
09!
0i
1g
1<
1/
0q
19!
03!
0g
1k
1$!
1z
0)!
0V
0#!
0:!
0j
0:
0$
05!
1:!
04!
1j
0*!
08!
0$!
0k
0>
0(
1o
1'!
1}
0=!
1k
0+!
1(!
1=
19
1A
1B
0?
1'
1&
1+
1,
0)
1=!
15!
0'!
0o
0p
1?
1>
0A
0=
09
0<
1)
1(
0+
0'
0&
0/
1o
0.!
1p
1q
1=
19
0@
1<
1:
1'
1&
0*
1/
1$
0p
0q
0<
0:
0/
0$
1q
1:
1$
#320000
b10011111 "
b10000000 !
b10011110 "
b10111110 "
b10110110 "
b10010000 !
b10100110 "
b10011000 !
b10111000 !
b11100110 "
0L
1H
1R
1W
0K
1N
0I
0T
1X
1Z
11
0?!
0~
0w
0`
1c
1d
1<!
1Y
1>!
1u
1s
10!
0x
1)!
17!
1e
1i
1[
1?!
01!
1D
1.
1v
0y
1*!
09!
13!
0D
1C
0.
1-
05!
0z
1+!
0:!
14!
0>
0(
0}
1.!
0=!
15!
0B
1@
0?
1>
0,
1*
0)
1(
#360000
b11111000 !
b11111100 !
b11100100 "
b11111101 !
b11000100 "
b11110101 !
0N
0X
1L
1J
0H
1G
01
0u
0s
1`
18!
07!
0Y
0?!
1~
1w
0"!
1x
1Q
0&!
0c
0a
04!
1g
0x
1b
19!
1y
0)!
1"!
0j
1D
1.
0v
05!
0y
1c
1:!
1z
0*!
0k
0C
0>
0-
0(
0z
1)!
0+!
1=!
1}
0o
1*!
1?
1B
0=
09
1)
1,
0'
0&
0}
0.!
1p
1+!
0(!
0B
0@
1<
0,
0*
1/
0q
0:
0$
1.!
1@
1*
#400000
b11110111 !
b1110111 !
b11001100 "
b1100111 !
b1000111 !
b1000110 !
b1001110 !
1I
0L
1M
1H
0R
0W
0E
11
1&!
1U
1?!
1u
1s
0-!
0)!
0<!
08!
17!
1f
0p
0*!
09!
0i
0g
0D
0<
0.
0/
1v
1q
0+!
0:!
1j
1(!
1C
1:
1-
1$
1k
0.!
0=!
0@!
0@
0?
0*
0)
1o
1=
19
1'
1&
#440000
b1110 !
b11001110 "
b10001110 !
b11000110 "
1N
0I
0G
1E
01
0s
1O
1a
14!
1i
1g
0[
0f
0"!
0!!
0b
0j
0i
0g
0v
15!
1#!
0k
1j
1@!
0C
1>
0-
1(
1$!
1k
0o
0(!
0=
09
0'
0&
1'!
1o
1p
1(!
1A
1=
19
1<
1+
1'
1&
1/
0p
0q
0<
0:
0/
0$
1q
1:
1$
#480000
b1000110 "
b1000111 "
b1010111 "
b10001010 !
b10001000 !
b10101000 !
b11101000 !
b1010101 "
b1101000 !
b1011101 "
0M
0J
1W
1G
0E
1K
0N
1I
1T
0F
11
0~
0w
0u
0`
0O
1!!
1x
1<!
18!
07!
04!
1i
1g
1[
0n
0>!
1r
0c
0a
1-!
1)!
0d
1V
1p
0\
0!!
0x
1y
0Q
0#!
19!
0j
0?!
1s
0)!
1*!
17!
08!
1Y
1<
08
1/
0%
05!
0q
1#!
0y
1z
0$!
1:!
0k
0*!
1+!
09!
1D
0>
0:
1.
0(
0$
1v
1$!
0z
0+!
0:!
1C
1-
1}
0'!
1=!
0o
1.!
1B
0A
1?
0=
09
1@
1,
0+
1)
0'
0&
1*
1'!
0}
0.!
0=!
0p
1A
0B
0@
0?
0<
1+
0,
0*
0)
0/
1q
1:
1$
#520000
b1111101 "
b1101001 !
b1100001 !
b11111101 "
b11111100 "
b1100011 !
b1000011 !
1L
1M
0H
0W
0K
1X
1F
01
1?!
1~
1w
0r
1`
1u
0s
1a
0U
0e
1>!
1n
1f
1\
0@!
1s
1!!
1x
1"!
0V
03!
0?!
0i
0D
18
0.
1%
0v
0#!
1y
18!
0Y
14!
1@!
1D
0C
1.
0-
1v
0$!
1z
1C
1-
15!
1>
1(
0'!
1}
0A
1B
0+
1,
#560000
b1000111 !
b111 !
b10000111 !
b11011100 "
b10001111 !
b1011100 "
0X
0F
1J
1H
0G
1E
11
0<!
08!
07!
0"!
0!!
0x
1Q
0a
1U
04!
1i
0[
19!
1#!
0y
1"!
1!!
1b
1V
05!
1:!
1$!
0z
0#!
1c
18!
0>
0(
0$!
1)!
1=!
1'!
0}
1*!
1?
1A
0B
1)
1+
0,
0'!
1+!
0A
0+
1.!
1@
1*
#600000
b1011000 "
b10001110 !
b1011001 "
b10001100 !
b10101100 !
b10101000 !
b11101000 !
b1111001 "
b11100000 !
0L
0M
0J
0H
1W
1G
1K
0P
1X
01
1?!
0~
0w
1r
0`
0]
0u
0s
0"!
0|
0Q
1a
1<!
1Y
14!
0i
1[
0>!
1s
1x
0b
06!
0U
1"!
0?!
0D
0.
0v
15!
1y
0c
0V
0(!
1D
0C
1>
1.
0-
1(
1v
1z
0)!
08!
1(!
1C
1-
0*!
1}
0+!
1B
1,
0.!
0@
0*
#640000
b11110000 !
b1101001 "
b1100001 "
b1110000 !
b11100001 "
b11100101 "
b1110001 !
b11100100 "
b1110101 !
0K
1P
0I
0T
1F
1L
1J
1R
0E
11
1>!
0r
1`
0"!
1|
1Q
0&!
0a
1d
1?!
1~
1w
1]
16!
0?!
0s
0x
1b
1"!
17!
1e
0D
0.
0y
1c
09!
13!
0g
1D
1.
0v
0z
1)!
0:!
04!
1j
0C
0-
1*!
1k
0}
0=!
05!
1+!
0(!
0B
0?
0>
0,
0)
0(
1o
1(!
1=
19
1'
1&
1.!
1@
1*
#680000
b1110111 !
b11000100 "
b1100111 !
b11100111 !
b1000100 "
b1000000 "
b11100110 !
b1000001 "
1K
0P
0X
0F
0L
1M
0R
1E
01
0>!
1r
0"!
1x
0Q
18!
07!
0Y
1?!
1u
1s
0-!
0)!
0?!
0s
1y
19!
0*!
0D
0.
1v
1z
1:!
0+!
1D
1C
1.
1-
0v
0C
0-
1}
1=!
0.!
1B
1?
0@
1,
1)
0*
#720000
b1 "
b11000110 !
b10001 "
b11000010 !
b110001 "
0J
0W
1T
1X
0Z
11
0|
0x
0e
1-!
1)!
0d
00!
1i
0[
0y
03!
1*!
17!
11!
0z
14!
1+!
09!
15!
0:!
1>
1(
0}
05!
1.!
0B
0>
1@
0,
0(
1*
0=!
0?
0)
#760000
b10000010 !
b10001010 !
b1010 !
b10110001 "
b1011 !
b10110000 "
b101011 !
b10010000 "
0K
0X
1F
1L
1H
1W
0G
0E
01
1>!
0r
1e
1?!
1&!
1a
04!
1g
0\
0?!
1s
13!
0g
1"!
0!!
0b
0j
0D
08
0.
0%
15!
14!
1j
1#!
0k
1D
1>
1.
1(
1v
1k
1$!
1C
1-
05!
0o
0>
0=
09
0(
0'
0&
1o
1'!
1=
19
1A
1'
1&
1+
#800000
b101001 !
b11010000 "
b11000000 "
b101101 !
b1101101 !
b11101101 !
b1000000 "
b1000001 "
b11001101 !
1K
0T
1Z
0F
0M
1J
0W
1G
1E
11
0>!
0-!
0)!
1d
10!
0i
1[
0u
0s
1|
1x
0<!
08!
07!
0e
04!
1\
1?!
0*!
17!
1e
01!
1y
19!
03!
1g
18
1%
0v
15!
0+!
09!
13!
0g
1z
1:!
14!
0j
0D
0C
1>
0.
0-
1(
05!
0:!
04!
1j
0k
0>
0(
0.!
1}
1=!
15!
1k
0@
1B
1?
1>
0*
1,
1)
1(
0=!
05!
0o
0@!
0?
0>
0=
09
0)
0(
0'
0&
1o
1=
19
1'
1&
#840000
b11011101 !
b11010101 !
b11010100 !
b11010110 !
b11010010 !
b10010010 !
b10010 !
b1000000 "
b110010 !
0K
0L
1M
0J
0H
1R
1W
0G
0E
01
1>!
0?!
1u
1s
0|
0x
0&!
0c
0a
1-!
1)!
1<!
18!
07!
14!
1i
1g
0[
0n
0f
1p
0\
1?!
1@!
0y
0)!
0"!
1!!
1b
1*!
19!
0j
0i
0g
1D
1<
08
1.
1/
0%
1v
15!
0q
0z
0*!
0#!
1c
1+!
1:!
0k
1j
0D
1C
1>
0:
0.
1-
1(
0$
0+!
0$!
1)!
1k
0}
1.!
1=!
0o
1*!
0B
1@
1?
0=
09
0,
1*
1)
0'
0&
0.!
0'!
1o
0p
1+!
0@
0A
1=
19
0<
0*
0+
1'
1&
0/
1p
1q
1<
1:
1/
1$
1.!
0q
1@
0:
1*
0$
#880000
b1000100 "
b100 "
b100010 !
b101010 !
b1101010 !
b11101010 !
1H
0R
1G
1E
1P
0Z
11
1&!
1a
0-!
0)!
04!
1g
1n
1f
0!!
1|
1x
0b
00!
0p
1\
1"!
1!!
0*!
0j
1i
0g
1#!
1y
11!
0<
18
0/
1%
05!
1q
0#!
0+!
0k
1j
1$!
1z
0>
1:
0(
1$
15!
0$!
1k
1>
1(
0.!
0o
1'!
1}
0@
0=
09
1A
1B
0*
0'
0&
1+
1,
0'!
1o
0A
1=
19
0+
1'
1&
#920000
b110 "
b100110 "
b110110 "
b10110110 "
b11101011 !
b11101001 !
b11101101 !
b11001101 !
b10110010 "
b11110010 "
b1001101 !
1L
0M
1J
0W
0E
1N
0P
1T
1X
1Z
1F
01
0?!
0`
0!!
0e
1-!
1)!
0d
10!
0i
1[
0\
0x
1#!
03!
1g
1*!
17!
01!
1D
08
1.
0%
1\
0y
1$!
14!
0j
1+!
09!
18
1%
05!
0z
0k
0:!
0>
0(
1'!
15!
1.!
1A
1>
1@
1+
1(
1*
0}
0o
0=!
0B
0=
09
0?
0,
0'
0&
0)
#960000
b11110011 "
b1101 !
b11010011 "
b11000011 "
b1100 !
b1000 !
b101000 !
b11000111 "
b10101000 !
0L
0J
1W
0G
1E
1K
1P
0T
0X
11
1?!
0~
0w
1r
1!!
1e
04!
1i
0[
0f
0>!
0-!
0)!
1d
1p
0s
0#!
13!
0g
0i
0?!
0*!
07!
0D
1<
0.
1/
05!
0q
0$!
14!
1j
0+!
19!
1D
0>
0:
1.
0(
0$
0v
1k
1:!
0C
0-
0'!
15!
0.!
0(!
0A
1>
0@
0+
1(
0*
1o
1=!
1(!
1=
19
1?
1'
1&
1)
0p
0<
0/
1q
1:
1$
