simulation/qsim/final_work.msim.vcd
$comment
	File created using the following command:
		vcd file final_work.msim.vcd -direction
$end
$date
	Mon Sep 05 22:29:53 2022
$end
$version
	ModelSim Version 10.1d
$end
$timescale
	1ps
$end
$scope module final_work_vlg_vec_tst $end
$var reg 1 ! Ck $end
$var reg 4 " instr [3:0] $end
$var reg 1 # N $end
$var reg 1 $ Rst $end
$var reg 1 % Z $end
$var wire 1 & cf_rem $end
$var wire 1 ' cg_ac $end
$var wire 1 ( cg_nz $end
$var wire 1 ) cg_pc $end
$var wire 1 * cg_rdm $end
$var wire 1 + cg_ri $end
$var wire 1 , ctrl_rem $end
$var wire 1 - inc_pc $end
$var wire 1 . read $end
$var wire 1 / write $end
$var wire 1 0 sampler $end
$scope module i1 $end
$var wire 1 1 gnd $end
$var wire 1 2 vcc $end
$var wire 1 3 unknown $end
$var tri1 1 4 devclrn $end
$var tri1 1 5 devpor $end
$var tri1 1 6 devoe $end
$var wire 1 7 cf_rem~output_o $end
$var wire 1 8 ctrl_rem~output_o $end
$var wire 1 9 inc_pc~output_o $end
$var wire 1 : cg_ac~output_o $end
$var wire 1 ; cg_ri~output_o $end
$var wire 1 < cg_pc~output_o $end
$var wire 1 = cg_rdm~output_o $end
$var wire 1 > read~output_o $end
$var wire 1 ? cg_nz~output_o $end
$var wire 1 @ write~output_o $end
$var wire 1 A Ck~input_o $end
$var wire 1 B Ck~inputclkctrl_outclk $end
$var wire 1 C inst|inst2|inst|inst5~0_combout $end
$var wire 1 D Rst~input_o $end
$var wire 1 E Rst~inputclkctrl_outclk $end
$var wire 1 F inst|inst2|inst|inst5~q $end
$var wire 1 G inst|inst2|inst3|inst|inst2|inst~combout $end
$var wire 1 H inst|inst2|inst3|inst5~q $end
$var wire 1 I inst|inst2|inst4|inst|inst2|inst~combout $end
$var wire 1 J inst|inst2|inst4|inst5~q $end
$var wire 1 K inst|inst2|inst4|inst1~0_combout $end
$var wire 1 L instr[3]~input_o $end
$var wire 1 M instr[0]~input_o $end
$var wire 1 N instr[2]~input_o $end
$var wire 1 O instr[1]~input_o $end
$var wire 1 P inst|inst5~0_combout $end
$var wire 1 Q inst|inst58~0_combout $end
$var wire 1 R inst|inst3|inst15~0_combout $end
$var wire 1 S N~input_o $end
$var wire 1 T inst|inst3|inst16~0_combout $end
$var wire 1 U Z~input_o $end
$var wire 1 V inst|inst32~0_combout $end
$var wire 1 W inst|inst58~1_combout $end
$var wire 1 X inst|inst58~2_combout $end
$var wire 1 Y inst|inst61~0_combout $end
$var wire 1 Z inst|inst61~1_combout $end
$var wire 1 [ inst|inst61~combout $end
$var wire 1 \ inst|inst19~0_combout $end
$var wire 1 ] inst|inst19~1_combout $end
$var wire 1 ^ inst|inst19~2_combout $end
$var wire 1 _ inst|inst19~3_combout $end
$var wire 1 ` inst|inst30~0_combout $end
$var wire 1 a inst|inst29~0_combout $end
$var wire 1 b inst|inst27~combout $end
$var wire 1 c inst|inst|inst~0_combout $end
$var wire 1 d inst|inst|inst~1_combout $end
$var wire 1 e inst|inst34~0_combout $end
$var wire 1 f inst|inst34~1_combout $end
$var wire 1 g inst|inst3|inst7~0_combout $end
$var wire 1 h inst|inst35~combout $end
$var wire 1 i inst|inst49~0_combout $end
$var wire 1 j inst|inst49~1_combout $end
$var wire 1 k inst|inst49~2_combout $end
$var wire 1 l inst|inst39~0_combout $end
$var wire 1 m inst|inst423~combout $end
$upscope $end
$upscope $end
$enddefinitions $end
#0
$dumpvars
0!
b1 "
0#
1$
0%
1&
0'
0(
0)
0*
0+
1,
0-
0.
0/
x0
01
12
x3
14
15
16
17
18
09
0:
0;
0<
0=
0>
0?
0@
0A
0B
1C
1D
1E
0F
0G
0H
0I
0J
0K
0L
1M
0N
0O
1P
1Q
0R
0S
0T
0U
0V
0W
1X
0Y
0Z
1[
0\
0]
0^
0_
0`
0a
0b
0c
0d
0e
0f
1g
0h
1i
0j
0k
0l
0m
$end
#5000
0$
0D
0E
00
#10000
1!
1A
1B
10
1F
0i
1d
1\
0Q
1G
0C
0[
08
0,
1k
1_
0X
1>
19
07
1.
1-
0&
#20000
0!
0A
0B
00
#30000
1!
1A
1B
10
1H
0F
0d
0\
1C
1c
1;
1+
0k
0_
0>
09
0.
0-
#40000
0!
0A
0B
00
#50000
1!
1A
1B
10
1F
1Q
1K
1I
0G
0C
0c
1Z
0;
0+
1X
17
1&
1[
18
1,
#60000
0!
0A
0B
00
#70000
1!
1A
1B
10
1J
0H
0F
1\
0Z
0Q
1i
0K
1C
1l
1?
1(
1_
0[
0X
1k
0l
19
08
07
1>
0?
1-
0,
0&
1.
0(
#80000
0!
0A
0B
00
#90000
1!
1A
1B
10
1F
0i
1d
0\
1Q
1G
0C
0k
0_
1X
0>
09
17
0.
0-
1&
#100000
0!
0A
0B
00
#110000
1!
1A
1B
10
1H
0F
0d
0Q
1C
1h
1=
1*
0X
07
0&
#120000
0!
0A
0B
00
#130000
1!
1A
1B
10
1F
1K
0I
0G
0C
1m
0h
1@
0=
1/
0*
1l
1?
1(
#140000
0!
0A
0B
00
#150000
b11 "
b10 "
1!
0M
1O
1A
1B
10
0g
1`
0m
1b
0@
1:
0/
1'
0J
0H
0F
1Z
1Q
1i
0K
1C
0l
0b
1[
0Z
0?
0:
18
0(
0'
1,
1X
17
1&
#160000
0!
0A
0B
00
#170000
1!
1A
1B
10
1F
0i
1d
1\
0Q
1G
0C
0[
08
0,
1k
1_
0X
1>
19
07
1.
1-
0&
#180000
0!
0A
0B
00
#190000
1!
1A
1B
10
1H
0F
1i
0d
0\
1C
1c
1;
1+
0k
0_
0>
09
0.
0-
#200000
0!
0A
0B
00
#210000
1!
1A
1B
10
1F
0i
1Q
1K
1I
0G
0C
0c
1Z
0;
0+
1X
17
1&
1[
18
1,
#220000
0!
0A
0B
00
#230000
1!
1A
1B
10
1J
0H
0F
1\
0Z
0Q
1i
0K
1C
1l
1b
1?
1:
1(
1'
1_
0[
0X
1k
0l
0b
19
08
07
1>
0?
0:
1-
0,
0&
1.
0(
0'
#240000
0!
0A
0B
00
#250000
1!
1A
1B
10
1F
0i
1d
0\
1Q
1G
0C
0k
0_
1X
0>
09
17
0.
0-
1&
#260000
0!
0A
0B
00
#270000
1!
1A
1B
10
1H
0F
1i
0d
0Q
1C
1k
0X
1>
07
1.
0&
#280000
0!
0A
0B
00
#290000
1!
1A
1B
10
1F
0i
1K
0I
0G
0C
0k
1l
1b
0>
1?
1:
0.
1(
1'
#300000
0!
0A
0B
00
#310000
b11 "
1!
1M
1A
1B
10
0J
0H
0F
1Z
1Q
1i
0K
1C
0l
0b
1[
0Z
0?
0:
18
0(
0'
1,
1X
17
1&
#320000
0!
0A
0B
00
#330000
1!
1A
1B
10
1F
0i
1d
1\
0Q
1G
0C
0[
08
0,
1k
1_
0X
1>
19
07
1.
1-
0&
#340000
0!
0A
0B
00
#350000
1!
1A
1B
10
1H
0F
1i
0d
0\
1C
1c
1;
1+
0k
0_
0>
09
0.
0-
#360000
0!
0A
0B
00
#370000
1!
1A
1B
10
1F
0i
1Q
1K
1I
0G
0C
0c
1Z
0;
0+
1X
17
1&
1[
18
1,
#380000
0!
0A
0B
00
#390000
1!
1A
1B
10
1J
0H
0F
1\
0Z
0Q
1i
0K
1C
1l
1b
1?
1:
1(
1'
1_
0[
0X
1k
0l
0b
19
08
07
1>
0?
0:
1-
0,
0&
1.
0(
0'
#400000
0!
0A
0B
00
#410000
1!
1A
1B
10
1F
0i
1d
0\
1Q
1G
0C
0k
0_
1X
0>
09
17
0.
0-
1&
#420000
0!
0A
0B
00
#430000
1!
1A
1B
10
1H
0F
1i
0d
0Q
1C
1k
0X
1>
07
1.
0&
#440000
0!
0A
0B
00
#450000
1!
1A
1B
10
1F
0i
1K
0I
0G
0C
0k
1l
1b
0>
1?
1:
0.
1(
1'
#460000
0!
0A
0B
00
#470000
b111 "
b101 "
b100 "
1!
0M
0O
1N
1A
1B
10
1e
0J
0H
0F
1Z
1Q
1i
0K
1C
0l
0b
1[
0Z
0?
0:
18
0(
0'
1,
1X
17
1&
#480000
0!
0A
0B
00
#490000
1!
1A
1B
10
1F
0i
1d
1\
0Q
1G
0C
0[
08
0,
1k
1_
0X
1>
19
07
1.
1-
0&
#500000
0!
0A
0B
00
#510000
1!
1A
1B
10
1H
0F
1i
0d
0\
1C
1c
1;
1+
0k
0_
0>
09
0.
0-
#520000
0!
0A
0B
00
#530000
1!
1A
1B
10
1F
0i
1Q
1K
1I
0G
0C
0c
1Z
0;
0+
1X
17
1&
1[
18
1,
#540000
0!
0A
0B
00
#550000
1!
1A
1B
10
1J
0H
0F
1\
0Z
0Q
1i
0K
1C
1l
1b
1?
1:
1(
1'
1_
0[
0X
1k
0l
0b
19
08
07
1>
0?
0:
1-
0,
0&
1.
0(
0'
#560000
0!
0A
0B
00
#570000
1!
1A
1B
10
1F
0i
1d
0\
1Q
1G
0C
0k
0_
1X
0>
09
17
0.
0-
1&
#580000
0!
0A
0B
00
#590000
1!
1A
1B
10
1H
0F
1i
0d
0Q
1C
1k
0X
1>
07
1.
0&
#600000
0!
0A
0B
00
#610000
1!
1A
1B
10
1F
0i
1K
0I
0G
0C
0k
1l
1b
0>
1?
1:
0.
1(
1'
#620000
0!
0A
0B
00
#630000
b101 "
1!
1M
1A
1B
10
0e
0J
0H
0F
1Z
1Q
1i
0K
1C
0l
0b
1[
0Z
0?
0:
18
0(
0'
1,
1X
17
1&
#640000
0!
0A
0B
00
#650000
1!
1A
1B
10
1F
0i
1d
1\
0Q
1G
0C
0[
08
0,
1k
1_
0X
1>
19
07
1.
1-
0&
#660000
0!
0A
0B
00
#670000
1!
1A
1B
10
1H
0F
1i
0d
0\
1C
1c
1;
1+
0k
0_
0>
09
0.
0-
#680000
0!
0A
0B
00
#690000
1!
1A
1B
10
1F
0i
1Q
1K
1I
0G
0C
0c
1Z
0;
0+
1X
17
1&
1[
18
1,
#700000
0!
0A
0B
00
#710000
1!
1A
1B
10
1J
0H
0F
1\
0Z
0Q
1i
0K
1C
1l
1b
1?
1:
1(
1'
1_
0[
0X
1k
0l
0b
19
08
07
1>
0?
0:
1-
0,
0&
1.
0(
0'
#720000
0!
0A
0B
00
#730000
1!
1A
1B
10
1F
0i
1d
0\
1Q
1G
0C
0k
0_
1X
0>
09
17
0.
0-
1&
#740000
0!
0A
0B
00
#750000
1!
1A
1B
10
1H
0F
1i
0d
0Q
1C
1k
0X
1>
07
1.
0&
#760000
0!
0A
0B
00
#770000
1!
1A
1B
10
1F
0i
1K
0I
0G
0C
0k
1l
1b
0>
1?
1:
0.
1(
1'
#780000
0!
0A
0B
00
#790000
b111 "
b110 "
1!
0M
1O
1A
1B
10
1a
0P
0`
0b
0:
0'
0J
0H
0F
1Q
0K
1C
0l
1b
1[
0?
1:
18
0(
1'
1,
1X
0b
17
0:
1&
0'
#800000
0!
0A
0B
00
#810000
1!
1A
1B
10
1F
1d
1\
0Q
1G
0C
0[
08
0,
1k
1_
0X
1>
19
07
1.
1-
0&
#820000
0!
0A
0B
00
#830000
1!
1A
1B
10
1H
0F
0d
0\
1C
1c
1;
1+
0k
0_
0>
09
0.
0-
#840000
0!
0A
0B
00
#850000
1!
1A
1B
10
1F
1K
1I
0G
0C
0c
0;
0+
1b
1:
1'
#860000
0!
0A
0B
00
#870000
1!
1A
1B
10
1J
0H
0F
0K
1C
1l
0b
1?
0:
1(
0'
0l
0?
0(
#880000
0!
0A
0B
00
#890000
1!
1A
1B
10
1F
1d
1G
0C
#900000
0!
0A
0B
00
#910000
1!
1A
1B
10
1H
0F
0d
1C
#920000
0!
0A
0B
00
#930000
1!
1A
1B
10
1F
1K
0I
0G
0C
1l
1?
1(
#940000
0!
0A
0B
00
#950000
b111 "
1!
1M
1A
1B
10
0a
0l
0?
0(
0J
0H
0F
1Q
0K
1C
1[
18
1,
1X
17
1&
#960000
0!
0A
0B
00
#970000
1!
1A
1B
10
1F
1d
1\
0Q
1G
0C
0[
08
0,
1k
1_
0X
1>
19
07
1.
1-
0&
#980000
0!
0A
0B
00
#990000
1!
1A
1B
10
1H
0F
0d
0\
1C
1c
1;
1+
0k
0_
0>
09
0.
0-
