simulation/qsim/testes.msim.vcd
$comment
	File created using the following command:
		vcd file testes.msim.vcd -direction
$end
$date
	Sun Sep 11 18:30:16 2022
$end
$version
	ModelSim Version 10.1d
$end
$timescale
	1ps
$end
$scope module testes_vlg_vec_tst $end
$var reg 1 ! clock $end
$var reg 1 " rst $end
$var wire 1 # borrow $end
$var wire 1 $ carry $end
$var wire 1 % instr [7] $end
$var wire 1 & instr [6] $end
$var wire 1 ' instr [5] $end
$var wire 1 ( instr [4] $end
$var wire 1 ) instr [3] $end
$var wire 1 * instr [2] $end
$var wire 1 + instr [1] $end
$var wire 1 , instr [0] $end
$var wire 1 - negative $end
$var wire 1 . overflow $end
$var wire 1 / pc [7] $end
$var wire 1 0 pc [6] $end
$var wire 1 1 pc [5] $end
$var wire 1 2 pc [4] $end
$var wire 1 3 pc [3] $end
$var wire 1 4 pc [2] $end
$var wire 1 5 pc [1] $end
$var wire 1 6 pc [0] $end
$var wire 1 7 s [7] $end
$var wire 1 8 s [6] $end
$var wire 1 9 s [5] $end
$var wire 1 : s [4] $end
$var wire 1 ; s [3] $end
$var wire 1 < s [2] $end
$var wire 1 = s [1] $end
$var wire 1 > s [0] $end
$var wire 1 ? t [7] $end
$var wire 1 @ t [6] $end
$var wire 1 A t [5] $end
$var wire 1 B t [4] $end
$var wire 1 C t [3] $end
$var wire 1 D t [2] $end
$var wire 1 E t [1] $end
$var wire 1 F t [0] $end
$var wire 1 G zero $end
$var wire 1 H sampler $end
$scope module i1 $end
$var wire 1 I gnd $end
$var wire 1 J vcc $end
$var wire 1 K unknown $end
$var tri1 1 L devclrn $end
$var tri1 1 M devpor $end
$var tri1 1 N devoe $end
$var wire 1 O zero~output_o $end
$var wire 1 P negative~output_o $end
$var wire 1 Q overflow~output_o $end
$var wire 1 R carry~output_o $end
$var wire 1 S borrow~output_o $end
$var wire 1 T instr[7]~output_o $end
$var wire 1 U instr[6]~output_o $end
$var wire 1 V instr[5]~output_o $end
$var wire 1 W instr[4]~output_o $end
$var wire 1 X instr[3]~output_o $end
$var wire 1 Y instr[2]~output_o $end
$var wire 1 Z instr[1]~output_o $end
$var wire 1 [ instr[0]~output_o $end
$var wire 1 \ pc[7]~output_o $end
$var wire 1 ] pc[6]~output_o $end
$var wire 1 ^ pc[5]~output_o $end
$var wire 1 _ pc[4]~output_o $end
$var wire 1 ` pc[3]~output_o $end
$var wire 1 a pc[2]~output_o $end
$var wire 1 b pc[1]~output_o $end
$var wire 1 c pc[0]~output_o $end
$var wire 1 d s[7]~output_o $end
$var wire 1 e s[6]~output_o $end
$var wire 1 f s[5]~output_o $end
$var wire 1 g s[4]~output_o $end
$var wire 1 h s[3]~output_o $end
$var wire 1 i s[2]~output_o $end
$var wire 1 j s[1]~output_o $end
$var wire 1 k s[0]~output_o $end
$var wire 1 l t[7]~output_o $end
$var wire 1 m t[6]~output_o $end
$var wire 1 n t[5]~output_o $end
$var wire 1 o t[4]~output_o $end
$var wire 1 p t[3]~output_o $end
$var wire 1 q t[2]~output_o $end
$var wire 1 r t[1]~output_o $end
$var wire 1 s t[0]~output_o $end
$var wire 1 t inst|inst30~feeder_combout $end
$var wire 1 u rst~input_o $end
$var wire 1 v rst~inputclkctrl_outclk $end
$var wire 1 w inst|inst|inst1|inst2|inst|inst5~0_combout $end
$var wire 1 x inst|inst|inst1|inst2|inst|inst5~q $end
$var wire 1 y inst|inst|inst1|inst2|inst3|inst|inst2|inst~combout $end
$var wire 1 z inst|inst|inst1|inst2|inst3|inst5~q $end
$var wire 1 { inst|inst|inst1|inst2|inst4|inst|inst2|inst~combout $end
$var wire 1 | inst|inst|inst1|inst2|inst4|inst5~q $end
$var wire 1 } inst|inst|inst1|inst1|inst~2_combout $end
$var wire 1 ~ inst|inst|inst1|inst1|inst~5_combout $end
$var wire 1 !! inst|RI|inst1~q $end
$var wire 1 "! inst|RI|inst7~q $end
$var wire 1 #! inst|inst|inst|inst|inst14~2_combout $end
$var wire 1 $! inst|inst4|Mux6~0_combout $end
$var wire 1 %! inst|inst|inst25~0_combout $end
$var wire 1 &! inst|inst21~combout $end
$var wire 1 '! inst|PC|inst3|inst|inst2|inst2~0_combout $end
$var wire 1 (! inst|PC|inst3|inst|inst2|inst2~1_combout $end
$var wire 1 )! inst|PC|inst3|inst5~q $end
$var wire 1 *! inst|PC|inst4|inst2~combout $end
$var wire 1 +! inst|PC|inst4|inst|inst2|inst2~0_combout $end
$var wire 1 ,! inst|PC|inst4|inst5~q $end
$var wire 1 -! inst|inst3|inst2|inst2~0_combout $end
$var wire 1 .! inst|inst|inst19~0_combout $end
$var wire 1 /! inst|REM|inst4~q $end
$var wire 1 0! inst|inst4|Mux7~10_combout $end
$var wire 1 1! inst|inst4|Mux7~6_combout $end
$var wire 1 2! inst|inst4|Mux7~8_combout $end
$var wire 1 3! inst|inst4|Mux7~7_combout $end
$var wire 1 4! inst|inst4|Mux7~9_combout $end
$var wire 1 5! inst|inst4|Mux7~11_combout $end
$var wire 1 6! inst|inst4|Mux7~4_combout $end
$var wire 1 7! inst|inst4|Mux7~3_combout $end
$var wire 1 8! inst|inst4|Mux7~5_combout $end
$var wire 1 9! inst|inst4|Mux7~12_combout $end
$var wire 1 :! inst|inst8~0_combout $end
$var wire 1 ;! inst|inst|inst1|inst1|inst~3_combout $end
$var wire 1 <! inst|inst8~1_combout $end
$var wire 1 =! inst|RDM|inst~q $end
$var wire 1 >! inst|PC|inst|inst|inst2|inst2~0_combout $end
$var wire 1 ?! inst|PC|inst|inst5~q $end
$var wire 1 @! inst|PC|inst5|inst1~combout $end
$var wire 1 A! inst|PC|inst5|inst|inst2|inst2~0_combout $end
$var wire 1 B! inst|PC|inst5|inst5~q $end
$var wire 1 C! inst|inst3|inst3|inst2~0_combout $end
$var wire 1 D! inst|REM|inst6~q $end
$var wire 1 E! inst|inst4|Mux6~8_combout $end
$var wire 1 F! inst|inst4|Mux6~7_combout $end
$var wire 1 G! inst|inst4|Mux6~9_combout $end
$var wire 1 H! inst|inst4|Mux6~2_combout $end
$var wire 1 I! inst|inst4|Mux6~3_combout $end
$var wire 1 J! inst|inst4|Mux6~4_combout $end
$var wire 1 K! inst|inst4|Mux6~5_combout $end
$var wire 1 L! inst|inst4|Mux6~1_combout $end
$var wire 1 M! inst|inst4|Mux6~6_combout $end
$var wire 1 N! inst|inst4|Mux6~10_combout $end
$var wire 1 O! inst|RDM|inst2~q $end
$var wire 1 P! inst|inst3|inst1|inst2~0_combout $end
$var wire 1 Q! inst|REM|inst2~q $end
$var wire 1 R! inst|inst4|Mux4~0_combout $end
$var wire 1 S! inst|inst4|Mux4~1_combout $end
$var wire 1 T! inst|inst4|Mux4~2_combout $end
$var wire 1 U! inst|inst4|Mux4~3_combout $end
$var wire 1 V! inst|inst4|Mux4~4_combout $end
$var wire 1 W! inst|inst4|Mux4~6_combout $end
$var wire 1 X! inst|inst4|Mux4~7_combout $end
$var wire 1 Y! inst|inst4|Mux4~5_combout $end
$var wire 1 Z! inst|RDM|inst6~q $end
$var wire 1 [! inst|RI|inst6~q $end
$var wire 1 \! inst|inst7|inst|inst1|inst3|inst2|inst2~2_combout $end
$var wire 1 ]! inst|RI|inst~q $end
$var wire 1 ^! inst|inst7|inst|inst1|inst3|inst2|inst2~4_combout $end
$var wire 1 _! inst|inst7|inst|inst1|inst3|inst2|inst2~5_combout $end
$var wire 1 `! inst|inst7|inst|inst1|inst3|inst2|inst2~3_combout $end
$var wire 1 a! inst|inst7|inst|inst|inst3|inst2|inst2~0_combout $end
$var wire 1 b! inst|inst7|inst|inst|inst3|inst2|inst2~1_combout $end
$var wire 1 c! inst|inst7|inst|inst|inst3|inst2|inst2~2_combout $end
$var wire 1 d! inst|inst|inst403~5_combout $end
$var wire 1 e! inst|inst|inst403~4_combout $end
$var wire 1 f! inst|AC|inst~q $end
$var wire 1 g! inst|inst7|inst10|inst46|inst8|inst2~0_combout $end
$var wire 1 h! inst|inst7|inst|inst1|inst3|inst2|inst2~10_combout $end
$var wire 1 i! inst|inst7|inst|inst1|inst3|inst2|inst2~8_combout $end
$var wire 1 j! inst|inst7|inst|inst1|inst3|inst2|inst2~6_combout $end
$var wire 1 k! inst|inst7|inst|inst1|inst3|inst2|inst2~7_combout $end
$var wire 1 l! inst|inst7|inst|inst1|inst3|inst2|inst2~9_combout $end
$var wire 1 m! inst|AC|inst2~q $end
$var wire 1 n! inst|inst7|inst|inst2|inst3|inst2|inst2~2_combout $end
$var wire 1 o! inst|inst7|inst10|inst46|inst1|inst2~0_combout $end
$var wire 1 p! inst|inst7|inst|inst2|inst3|inst2|inst2~5_combout $end
$var wire 1 q! inst|inst7|inst|inst2|inst3|inst2|inst2~3_combout $end
$var wire 1 r! inst|inst7|inst|inst2|inst3|inst2|inst2~4_combout $end
$var wire 1 s! inst|AC|inst4~q $end
$var wire 1 t! inst|inst7|inst|inst3|inst3|inst2|inst2~2_combout $end
$var wire 1 u! inst|inst7|inst10|inst46|inst2|inst2~0_combout $end
$var wire 1 v! inst|inst7|inst|inst3|inst3|inst2|inst2~5_combout $end
$var wire 1 w! inst|inst7|inst|inst3|inst3|inst2|inst2~3_combout $end
$var wire 1 x! inst|inst7|inst|inst3|inst3|inst2|inst2~4_combout $end
$var wire 1 y! inst|AC|inst6~q $end
$var wire 1 z! inst|inst7|inst10|inst46|inst3|inst2~0_combout $end
$var wire 1 {! inst|inst7|inst|inst4|inst3|inst2|inst2~5_combout $end
$var wire 1 |! inst|inst7|inst|inst4|inst3|inst2|inst2~3_combout $end
$var wire 1 }! inst|inst7|inst|inst4|inst3|inst2|inst2~2_combout $end
$var wire 1 ~! inst|inst7|inst|inst4|inst3|inst2|inst2~4_combout $end
$var wire 1 !" inst|AC|inst1~q $end
$var wire 1 "" inst|inst7|inst|inst5|inst3|inst2|inst2~2_combout $end
$var wire 1 #" inst|inst7|inst10|inst46|inst4|inst2~0_combout $end
$var wire 1 $" inst|inst7|inst|inst5|inst3|inst2|inst2~5_combout $end
$var wire 1 %" inst|inst7|inst|inst5|inst3|inst2|inst2~3_combout $end
$var wire 1 &" inst|inst7|inst|inst5|inst3|inst2|inst2~4_combout $end
$var wire 1 '" inst|AC|inst3~q $end
$var wire 1 (" inst|inst7|inst|inst6|inst3|inst2|inst2~2_combout $end
$var wire 1 )" inst|inst7|inst10|inst46|inst5|inst2~0_combout $end
$var wire 1 *" inst|inst7|inst|inst6|inst3|inst2|inst2~5_combout $end
$var wire 1 +" inst|inst7|inst|inst6|inst3|inst2|inst2~3_combout $end
$var wire 1 ," inst|inst7|inst|inst6|inst3|inst2|inst2~4_combout $end
$var wire 1 -" inst|AC|inst5~q $end
$var wire 1 ." inst|inst7|inst|inst7|inst3|inst2|inst2~0_combout $end
$var wire 1 /" inst|inst7|inst|inst7|inst3|inst2|inst2~1_combout $end
$var wire 1 0" inst|inst7|inst|inst7|inst3|inst2|inst2~2_combout $end
$var wire 1 1" inst|inst7|inst|inst7|inst3|inst2|inst2~3_combout $end
$var wire 1 2" inst|inst7|inst|inst7|inst3|inst2|inst2~4_combout $end
$var wire 1 3" inst|inst7|inst|inst7|inst3|inst2|inst2~5_combout $end
$var wire 1 4" inst|AC|inst7~q $end
$var wire 1 5" inst|inst|inst|inst|inst14~1_combout $end
$var wire 1 6" inst|inst|inst|inst|inst14~0_combout $end
$var wire 1 7" inst|inst7|inst9|inst13~0_combout $end
$var wire 1 8" inst|inst7|inst9|inst13~1_combout $end
$var wire 1 9" inst|inst|inst1|inst1|inst~0_combout $end
$var wire 1 :" inst|inst|inst406~combout $end
$var wire 1 ;" inst|inst24~q $end
$var wire 1 <" inst|inst|inst|inst|inst14~3_combout $end
$var wire 1 =" inst|inst|inst4056~4_combout $end
$var wire 1 >" inst|inst|inst4056~9_combout $end
$var wire 1 ?" inst|inst23~q $end
$var wire 1 @" inst|inst|inst28~0_combout $end
$var wire 1 A" inst|inst25~feeder_combout $end
$var wire 1 B" inst|inst|inst408~combout $end
$var wire 1 C" inst|inst25~q $end
$var wire 1 D" inst|inst|inst29~4_combout $end
$var wire 1 E" inst|inst|inst29~20_combout $end
$var wire 1 F" inst|inst|inst29~18_combout $end
$var wire 1 G" inst|inst|inst28~1_combout $end
$var wire 1 H" inst|inst|inst29~13_combout $end
$var wire 1 I" inst|inst|inst29~21_combout $end
$var wire 1 J" inst|inst|inst29~19_combout $end
$var wire 1 K" inst|inst|inst43~combout $end
$var wire 1 L" inst|PC|inst7|inst|inst2|inst2~0_combout $end
$var wire 1 M" inst|PC|inst7|inst|inst2|inst2~1_combout $end
$var wire 1 N" inst|PC|inst7|inst5~q $end
$var wire 1 O" inst|PC|inst8|inst1~combout $end
$var wire 1 P" inst|PC|inst8|inst|inst2|inst2~0_combout $end
$var wire 1 Q" inst|PC|inst8|inst5~q $end
$var wire 1 R" inst|inst3|inst6|inst2~0_combout $end
$var wire 1 S" inst|REM|inst5~q $end
$var wire 1 T" inst|inst4|Mux2~6_combout $end
$var wire 1 U" inst|inst4|Mux2~0_combout $end
$var wire 1 V" inst|inst4|Mux2~4_combout $end
$var wire 1 W" inst|inst4|Mux2~2_combout $end
$var wire 1 X" inst|inst4|Mux2~1_combout $end
$var wire 1 Y" inst|inst4|Mux2~3_combout $end
$var wire 1 Z" inst|inst4|Mux2~5_combout $end
$var wire 1 [" inst|inst4|Mux2~7_combout $end
$var wire 1 \" inst|RDM|inst3~q $end
$var wire 1 ]" inst|RI|inst3~q $end
$var wire 1 ^" inst|inst|inst36~8_combout $end
$var wire 1 _" inst|inst|inst36~combout $end
$var wire 1 `" inst|inst|inst37~0_combout $end
$var wire 1 a" inst|inst3|inst|inst2~0_combout $end
$var wire 1 b" inst|REM|inst~q $end
$var wire 1 c" inst|inst4|Mux3~0_combout $end
$var wire 1 d" inst|inst4|Mux3~1_combout $end
$var wire 1 e" inst|inst4|Mux3~2_combout $end
$var wire 1 f" inst|inst4|Mux3~3_combout $end
$var wire 1 g" inst|inst4|Mux3~4_combout $end
$var wire 1 h" inst|inst4|Mux3~5_combout $end
$var wire 1 i" inst|inst4|Mux7~2_combout $end
$var wire 1 j" inst|inst4|Mux3~6_combout $end
$var wire 1 k" inst|inst4|Mux3~7_combout $end
$var wire 1 l" inst|RDM|inst1~q $end
$var wire 1 m" inst|inst3|inst4|inst2~0_combout $end
$var wire 1 n" inst|REM|inst1~q $end
$var wire 1 o" inst|inst4|Mux0~0_combout $end
$var wire 1 p" inst|inst4|Mux0~1_combout $end
$var wire 1 q" inst|inst4|Mux0~6_combout $end
$var wire 1 r" inst|inst4|Mux0~4_combout $end
$var wire 1 s" inst|inst4|Mux0~3_combout $end
$var wire 1 t" inst|inst4|Mux0~5_combout $end
$var wire 1 u" inst|inst4|Mux0~2_combout $end
$var wire 1 v" inst|inst4|Mux0~7_combout $end
$var wire 1 w" inst|inst4|Mux0~8_combout $end
$var wire 1 x" inst|RDM|inst7~q $end
$var wire 1 y" inst|PC|inst9|inst|inst2|inst2~0_combout $end
$var wire 1 z" inst|PC|inst9|inst|inst2|inst2~1_combout $end
$var wire 1 {" inst|PC|inst9|inst5~q $end
$var wire 1 |" inst|inst3|inst7|inst2~0_combout $end
$var wire 1 }" inst|REM|inst7~q $end
$var wire 1 ~" inst|inst4|Mux5~6_combout $end
$var wire 1 !# inst|inst4|Mux5~0_combout $end
$var wire 1 "# inst|inst4|Mux5~4_combout $end
$var wire 1 ## inst|inst4|Mux5~1_combout $end
$var wire 1 $# inst|inst4|Mux5~2_combout $end
$var wire 1 %# inst|inst4|Mux5~3_combout $end
$var wire 1 &# inst|inst4|Mux5~5_combout $end
$var wire 1 '# inst|inst4|Mux5~7_combout $end
$var wire 1 (# inst|RDM|inst4~q $end
$var wire 1 )# inst|RI|inst4~q $end
$var wire 1 *# inst|inst|inst1|inst1|inst~4_combout $end
$var wire 1 +# inst|inst|inst28~2_combout $end
$var wire 1 ,# inst|inst|inst402~combout $end
$var wire 1 -# inst|inst|inst25~1_combout $end
$var wire 1 .# inst|PC|inst6|inst2~combout $end
$var wire 1 /# inst|PC|inst6|inst|inst2|inst2~0_combout $end
$var wire 1 0# inst|PC|inst6|inst5~q $end
$var wire 1 1# inst|inst3|inst5|inst2~0_combout $end
$var wire 1 2# inst|REM|inst3~q $end
$var wire 1 3# inst|inst4|Mux1~1_combout $end
$var wire 1 4# inst|inst4|Mux1~2_combout $end
$var wire 1 5# inst|inst4|Mux1~0_combout $end
$var wire 1 6# inst|inst4|Mux1~3_combout $end
$var wire 1 7# inst|inst4|Mux1~4_combout $end
$var wire 1 8# inst|RDM|inst5~q $end
$var wire 1 9# inst|RI|inst5~q $end
$var wire 1 :# inst|inst|inst|inst|inst14~4_combout $end
$var wire 1 ;# inst|inst|inst409~combout $end
$var wire 1 <# inst|inst30~q $end
$var wire 1 =# clock~input_o $end
$var wire 1 ># inst|inst5|inst~combout $end
$var wire 1 ?# inst|inst5|inst~clkctrl_outclk $end
$var wire 1 @# inst|inst7|inst24|inst15~0_combout $end
$var wire 1 A# inst|inst7|inst24|inst15~1_combout $end
$var wire 1 B# inst|inst7|inst24|inst15~2_combout $end
$var wire 1 C# inst|inst11~q $end
$var wire 1 D# inst|RI|inst2~q $end
$var wire 1 E# inst|inst|inst1|inst1|inst~1_combout $end
$var wire 1 F# inst|inst|inst1|inst1|inst~6_combout $end
$var wire 1 G# inst|inst|inst1|inst1|inst~7_combout $end
$upscope $end
$upscope $end
$enddefinitions $end
#0
$dumpvars
0!
1"
0#
0$
0,
0+
0*
0)
0(
0'
0&
0%
0-
0.
06
05
04
03
02
01
00
0/
0>
0=
0<
0;
0:
09
08
07
1F
0E
0D
0C
0B
0A
0@
0?
0G
xH
0I
1J
xK
1L
1M
1N
0O
0P
0Q
0R
0S
0T
0U
0V
0W
0X
0Y
0Z
0[
0\
0]
0^
0_
0`
0a
0b
0c
0d
0e
0f
0g
0h
0i
0j
0k
0l
0m
0n
0o
0p
0q
0r
1s
1t
1u
1v
1w
0x
0y
0z
0{
0|
0}
0~
0!!
0"!
0#!
1$!
0%!
0&!
0'!
0(!
0)!
0*!
0+!
0,!
0-!
1.!
0/!
00!
11!
02!
03!
04!
05!
06!
07!
08!
09!
0:!
0;!
0<!
0=!
0>!
0?!
0@!
0A!
0B!
0C!
0D!
0E!
0F!
0G!
0H!
0I!
0J!
0K!
0L!
0M!
0N!
0O!
0P!
0Q!
0R!
0S!
0T!
0U!
0V!
0W!
0X!
0Y!
0Z!
0[!
0\!
0]!
1^!
0_!
1`!
0a!
0b!
0c!
0d!
0e!
0f!
0g!
0h!
1i!
1j!
1k!
0l!
0m!
1n!
0o!
0p!
1q!
0r!
0s!
1t!
0u!
0v!
1w!
0x!
0y!
0z!
0{!
1|!
1}!
0~!
0!"
1""
0#"
0$"
1%"
0&"
0'"
1("
0)"
0*"
1+"
0,"
0-"
0."
0/"
00"
01"
02"
03"
04"
05"
06"
07"
08"
09"
0:"
0;"
0<"
0="
0>"
0?"
0@"
1A"
0B"
0C"
0D"
0E"
0F"
1G"
1H"
0I"
0J"
0K"
0L"
0M"
0N"
0O"
0P"
0Q"
0R"
0S"
0T"
0U"
0V"
0W"
0X"
1Y"
1Z"
1["
0\"
0]"
1^"
0_"
0`"
0a"
0b"
0c"
0d"
0e"
0f"
0g"
0h"
1i"
0j"
0k"
0l"
0m"
0n"
1o"
0p"
0q"
0r"
0s"
0t"
0u"
0v"
0w"
0x"
0y"
0z"
0{"
0|"
0}"
0~"
0!#
0"#
0##
0$#
0%#
0&#
0'#
0(#
0)#
0*#
0+#
0,#
0-#
0.#
0/#
00#
01#
02#
03#
04#
05#
06#
07#
08#
09#
0:#
0;#
0<#
0=#
0>#
0?#
0@#
0A#
1B#
0C#
0D#
0E#
0F#
1G#
$end
#5000
0"
0u
0v
0H
#15000
1!
1=#
1H
1>#
1?#
1x
1`"
1:!
1%!
1y
0w
0G#
1F#
0.!
1<!
1-#
1&!
0s
1r
0F
1E
1>!
#20000
0!
0=#
0H
0>#
0?#
#25000
1!
1=#
1H
1>#
1?#
1\"
1z
0x
1?!
11#
1$"
0:!
0%!
1w
0>!
1'!
1c
16
0F#
1~
0%"
0<!
0-#
0&!
1(!
0r
1q
0E
1D
1>!
0'!
0(!
#30000
0!
0=#
0H
0>#
0?#
#35000
1!
1=#
1H
1>#
1?#
1x
1]"
1{
0y
0w
0^"
1="
1d!
1V
1'
1*#
0~
1_"
1p
0q
1C
0D
0`"
01#
1a"
1.!
#40000
0!
0=#
0H
0>#
0?#
#45000
1!
1=#
1H
1>#
1?#
1b"
1|
0z
0x
1$#
1"#
1t"
1p"
1W"
1U"
1T"
1I!
1F!
15!
1`"
1%!
1w
0*#
1;!
1%#
1v"
0Y"
1J!
19!
11#
0a"
0.!
1-#
1&!
1<!
0p
1o
0C
1B
1&#
1w"
0Z"
1M!
0>!
1'!
1'#
0["
1N!
1(!
#50000
0!
0=#
0H
0>#
0?#
#55000
1!
1=#
1H
1>#
1?#
1(#
1x"
0\"
1O!
1=!
1x
0?!
1)!
1p!
1-!
1|"
11"
01#
0$"
1h!
1P!
1a"
1a!
1>!
0%!
1y
0w
0c
1b
06
15
0;!
1}
0q!
1%"
0i!
1b!
0-#
0&!
0<!
1.!
0o
1n
0B
1A
0>!
#60000
0!
0=#
0H
0>#
0?#
#65000
1!
1=#
1H
1>#
1?#
1}"
1Q!
1/!
1z
0x
1j"
1G!
09!
0$!
15#
0$#
1~"
1u"
1q"
1g"
1X"
1V"
0U"
1L!
1H!
0F!
1E!
14!
16#
14#
0&#
0%#
0i"
1U!
0M!
0J!
01!
1:!
1w
1E#
0}
17#
0'#
0v"
1M!
0G!
05!
1<!
0.!
1m
0n
1@
0A
0w"
0N!
#70000
0!
0=#
0H
0>#
0?#
#75000
1!
1=#
1H
1>#
1?#
0(#
0x"
0O!
0=!
1x
0p!
0-!
0|"
01"
0h!
0P!
0a"
0a!
1>"
1e!
0:!
0{
0y
0w
0E#
19"
1q!
1i!
0b!
0<!
0m
1l
0@
1?
#80000
0!
0=#
0H
0>#
0?#
#85000
1!
1=#
1H
1>#
1?#
0|
0z
0x
1C#
0`"
0>"
0e!
1w
0H"
1D"
1O
1G
1G#
09"
1P!
1.!
1s
0l
1F
0?
#90000
0!
0=#
0H
0>#
0?#
#95000
1!
1=#
1H
1>#
1?#
0}"
0b"
0/!
1x
0j"
1$!
06#
04#
1##
0~"
0t"
0p"
0X"
0V"
0L!
1K!
0I!
0H!
0E!
15!
04!
1v"
1i"
1e"
0U!
0M!
1J!
11!
1`"
1:!
1%!
1y
0w
0G#
1F#
07#
0v"
1w"
1M!
0J!
19!
05!
1f"
0P!
0.!
1<!
1-#
1&!
0s
1r
0F
1E
0w"
1N!
0M!
09!
1h"
1>!
0N!
1k"
#100000
0!
0=#
0H
0>#
0?#
#105000
1!
1=#
1H
1>#
1?#
1l"
1z
0x
1?!
1m"
1{!
0:!
0%!
1w
0>!
1*!
0'!
1c
16
0F#
1~
0|!
0<!
0-#
0&!
1+!
0(!
0r
1q
0E
1D
1>!
0*!
1'!
0+!
1(!
#110000
0!
0=#
0H
0>#
0?#
#115000
1!
1=#
1H
1>#
1?#
1x
0]"
1!!
0`"
1{
0y
0w
0="
0d!
1H"
0D"
0V
1W
0'
1(
1*#
0~
0m"
1a"
1P!
1.!
1p
0q
1C
0D
#120000
0!
0=#
0H
0>#
0?#
#125000
1!
1=#
1H
1>#
1?#
1b"
1|
0z
0x
0##
1t"
1p"
0f"
1X"
1V"
1U"
1W!
1L!
0K!
1I!
1H!
1F!
1E!
15!
14!
1`"
1%!
1w
0*#
1;!
1v"
0h"
1J!
19!
05!
1m"
0a"
0P!
0.!
1-#
1&!
1<!
0p
1o
0C
1B
1w"
0k"
1M!
09!
0>!
1*!
0'!
1N!
1+!
0(!
#130000
0!
0=#
0H
0>#
0?#
#135000
1!
1=#
1H
1>#
1?#
1x"
0l"
1O!
1x
0?!
1,!
0)!
1|"
11"
0m"
0{!
1h!
1P!
0%!
1y
0w
1>!
0c
1a
0b
06
14
05
0;!
1}
1|!
0i!
0-#
0&!
0<!
1.!
0o
1n
0B
1A
0>!
#140000
0!
0=#
0H
0>#
0?#
#145000
1!
1=#
1H
1>#
1?#
1}"
0b"
1z
0x
1'#
1j"
1X!
0$!
1##
0t"
0p"
1f"
0X"
0V"
0U"
0L!
1K!
0I!
0H!
0F!
0E!
15!
04!
1:!
1w
1E#
0}
1k"
1Y!
0N!
0v"
1h"
0J!
1G!
05!
1<!
0.!
1m
0n
1@
0A
0w"
0M!
1N!
#150000
0!
0=#
0H
0>#
0?#
#155000
1!
1=#
1H
1>#
1?#
1(#
0x"
1l"
1Z!
1x
1p!
1-!
0|"
01"
1m"
1{!
1v!
1C!
0:!
0{
0y
0w
0E#
19"
0q!
0|!
0w!
0<!
0m
1l
0@
1?
#160000
0!
0=#
0H
0>#
0?#
#165000
1!
1=#
1H
1>#
1?#
0|
0z
0x
0`"
1w
1G#
09"
0m"
0P!
0C!
1.!
1s
0l
1F
0?
#170000
0!
0=#
0H
0>#
0?#
#175000
1!
1=#
1H
1>#
1?#
0}"
0Q!
1/!
1x
0'#
0j"
0W!
0G!
1$!
05#
0##
0"#
0u"
0q"
1p"
0g"
0e"
1d"
0W"
0K!
1v"
0i"
1U!
01!
1`"
1:!
1%!
1y
0w
0G#
1F#
0X!
0N!
0v"
1w"
0f"
1Y"
1m"
1P!
1C!
0.!
1<!
1-#
1&!
0s
1r
0F
1E
0Y!
0w"
0h"
1Z"
1>!
0k"
1["
#180000
0!
0=#
0H
0>#
0?#
#185000
1!
1=#
1H
1>#
1?#
0(#
0l"
1\"
0Z!
0O!
1z
0x
1?!
0p!
0-!
0m"
0{!
11#
1$"
0v!
0C!
0h!
0P!
0:!
0%!
1w
0>!
1'!
1c
16
0F#
1~
1q!
1|!
0%"
1w!
1i!
0<!
0-#
0&!
1(!
0r
1q
0E
1D
1>!
0'!
0(!
#190000
0!
0=#
0H
0>#
0?#
#195000
1!
1=#
1H
1>#
1?#
1x
1]"
0!!
0`"
1{
0y
0w
1="
1d!
0H"
1D"
1V
0W
1'
0(
1*#
0~
01#
1a"
1.!
1-!
1p
0q
1C
0D
#200000
0!
0=#
0H
0>#
0?#
#205000
1!
1=#
1H
1>#
1?#
1b"
1|
0z
0x
16#
14#
1$#
1"#
1~"
1t"
0p"
1W"
0T"
1I!
1F!
1E!
1`"
1%!
1w
0*#
1;!
1v"
0Y"
11#
0a"
0.!
0-!
1-#
1&!
1<!
0p
1o
0C
1B
1w"
0Z"
0>!
1'!
0["
1(!
#210000
0!
0=#
0H
0>#
0?#
#215000
1!
1=#
1H
1>#
1?#
1x"
0\"
1x
0?!
1)!
1|"
11"
01#
0$"
0%!
1y
0w
1>!
0c
1b
06
15
0;!
1}
1%"
0-#
0&!
0<!
1.!
0o
1n
0B
1A
0>!
#220000
0!
0=#
0H
0>#
0?#
#225000
1!
1=#
1H
1>#
1?#
1}"
0b"
0/!
1z
0x
1j"
1W!
0$!
06#
04#
0$#
0"#
0~"
0t"
0W"
0I!
0F!
0E!
1%#
1i"
0d"
0U!
1J!
11!
1:!
1w
1E#
0}
1k"
1X!
0%#
1&#
1'#
0v"
1Y"
0J!
1G!
1M!
1<!
0.!
1m
0n
1@
0A
1Y!
0&#
0w"
1Z"
0M!
1N!
1["
#230000
0!
0=#
0H
0>#
0?#
#235000
1!
1=#
1H
1>#
1?#
1(#
0x"
1l"
1Z!
1O!
1x
1p!
1-!
0|"
01"
1m"
1{!
1v!
1C!
1h!
1P!
1>"
1e!
0:!
0{
0y
0w
0E#
19"
0q!
0|!
0w!
0i!
0<!
0m
1l
0@
1?
#240000
0!
0=#
0H
0>#
0?#
#245000
1!
1=#
1H
1>#
1?#
0|
0z
0x
0`"
0>"
0e!
1w
1G#
09"
0m"
0C!
1.!
1s
0l
1F
0?
#250000
0!
0=#
0H
0>#
0?#
#255000
1!
1=#
1H
1>#
1?#
0}"
1Q!
1/!
1x
0'#
0j"
0W!
0G!
1$!
15#
1##
1"#
1~"
1u"
1q"
1g"
1U"
1K!
1E!
0i"
1U!
01!
1`"
1:!
1%!
1y
0w
0G#
1F#
0k"
0X!
0N!
1v"
1m"
1C!
0.!
1<!
1-#
1&!
0s
1r
0F
1E
0Y!
1w"
1>!
#260000
0!
0=#
0H
0>#
0?#
#265000
1!
1=#
1H
1>#
1?#
0(#
1x"
0l"
1\"
0Z!
0O!
1z
0x
1?!
0p!
0-!
1|"
11"
0m"
0{!
11#
1$"
0v!
0C!
0h!
0P!
0:!
0%!
1w
1@!
0>!
0*!
0'!
1c
16
0F#
1~
1q!
1|!
0%"
1w!
1i!
0<!
0-#
0&!
1A!
0+!
0(!
0r
1q
0E
1D
1>!
0@!
1*!
1'!
0A!
1+!
1(!
#270000
0!
0=#
0H
0>#
0?#
#275000
1!
1=#
1H
1>#
1?#
1x
1"!
0`"
1{
0y
0w
1^"
1E"
0="
0d!
1T
1%
1*#
0~
01#
0|"
1a"
1P!
1.!
1-!
0_"
1F"
1p
0q
1C
0D
1`"
1_"
11#
1|"
0a"
0P!
0.!
0-!
0`"
01#
0|"
1a"
1P!
1.!
1-!
#280000
0!
0=#
0H
0>#
0?#
#285000
1!
1=#
1H
1>#
1?#
1b"
1|
0z
0x
16#
14#
0##
1t"
1p"
1X"
1W"
1V"
0U"
1T"
1W!
1L!
0K!
1I!
1H!
14!
1`"
1w
0*#
1;!
17#
0v"
0Y"
1X!
1M!
11#
1|"
0a"
0P!
0.!
0-!
1<!
0p
1o
0C
1B
0w"
0Z"
1Y!
1N!
0["
#290000
0!
0=#
0H
0>#
0?#
