simulation/qsim/testes.msim.vcd
$comment
	File created using the following command:
		vcd file testes.msim.vcd -direction
$end
$date
	Mon Sep 26 20:54:23 2022
$end
$version
	ModelSim Version 10.1d
$end
$timescale
	1ps
$end
$scope module testes_vlg_vec_tst $end
$var reg 1 ! clock $end
$var reg 1 " rst $end
$var wire 1 # ac [7] $end
$var wire 1 $ ac [6] $end
$var wire 1 % ac [5] $end
$var wire 1 & ac [4] $end
$var wire 1 ' ac [3] $end
$var wire 1 ( ac [2] $end
$var wire 1 ) ac [1] $end
$var wire 1 * ac [0] $end
$var wire 1 + borrow $end
$var wire 1 , carry $end
$var wire 1 - instr [7] $end
$var wire 1 . instr [6] $end
$var wire 1 / instr [5] $end
$var wire 1 0 instr [4] $end
$var wire 1 1 instr [3] $end
$var wire 1 2 instr [2] $end
$var wire 1 3 instr [1] $end
$var wire 1 4 instr [0] $end
$var wire 1 5 negative $end
$var wire 1 6 overflow $end
$var wire 1 7 pc [7] $end
$var wire 1 8 pc [6] $end
$var wire 1 9 pc [5] $end
$var wire 1 : pc [4] $end
$var wire 1 ; pc [3] $end
$var wire 1 < pc [2] $end
$var wire 1 = pc [1] $end
$var wire 1 > pc [0] $end
$var wire 1 ? s [7] $end
$var wire 1 @ s [6] $end
$var wire 1 A s [5] $end
$var wire 1 B s [4] $end
$var wire 1 C s [3] $end
$var wire 1 D s [2] $end
$var wire 1 E s [1] $end
$var wire 1 F s [0] $end
$var wire 1 G zero $end
$var wire 1 H sampler $end
$scope module i1 $end
$var wire 1 I gnd $end
$var wire 1 J vcc $end
$var wire 1 K unknown $end
$var tri1 1 L devclrn $end
$var tri1 1 M devpor $end
$var tri1 1 N devoe $end
$var wire 1 O zero~output_o $end
$var wire 1 P negative~output_o $end
$var wire 1 Q overflow~output_o $end
$var wire 1 R carry~output_o $end
$var wire 1 S borrow~output_o $end
$var wire 1 T ac[7]~output_o $end
$var wire 1 U ac[6]~output_o $end
$var wire 1 V ac[5]~output_o $end
$var wire 1 W ac[4]~output_o $end
$var wire 1 X ac[3]~output_o $end
$var wire 1 Y ac[2]~output_o $end
$var wire 1 Z ac[1]~output_o $end
$var wire 1 [ ac[0]~output_o $end
$var wire 1 \ instr[7]~output_o $end
$var wire 1 ] instr[6]~output_o $end
$var wire 1 ^ instr[5]~output_o $end
$var wire 1 _ instr[4]~output_o $end
$var wire 1 ` instr[3]~output_o $end
$var wire 1 a instr[2]~output_o $end
$var wire 1 b instr[1]~output_o $end
$var wire 1 c instr[0]~output_o $end
$var wire 1 d pc[7]~output_o $end
$var wire 1 e pc[6]~output_o $end
$var wire 1 f pc[5]~output_o $end
$var wire 1 g pc[4]~output_o $end
$var wire 1 h pc[3]~output_o $end
$var wire 1 i pc[2]~output_o $end
$var wire 1 j pc[1]~output_o $end
$var wire 1 k pc[0]~output_o $end
$var wire 1 l s[7]~output_o $end
$var wire 1 m s[6]~output_o $end
$var wire 1 n s[5]~output_o $end
$var wire 1 o s[4]~output_o $end
$var wire 1 p s[3]~output_o $end
$var wire 1 q s[2]~output_o $end
$var wire 1 r s[1]~output_o $end
$var wire 1 s s[0]~output_o $end
$var wire 1 t clock~input_o $end
$var wire 1 u rst~input_o $end
$var wire 1 v inst|inst|inst1|inst2|inst|inst5~0_combout $end
$var wire 1 w inst|inst|inst1|inst2|inst|inst5~q $end
$var wire 1 x inst|inst|inst1|inst2|inst3|inst|inst2|inst~combout $end
$var wire 1 y inst|inst|inst1|inst2|inst3|inst5~q $end
$var wire 1 z inst|inst|inst1|inst2|inst4|inst|inst2|inst~combout $end
$var wire 1 { inst|inst|inst1|inst2|inst4|inst5~q $end
$var wire 1 | inst|PC|inst5|inst1~combout $end
$var wire 1 } inst|PC|inst6|inst2~combout $end
$var wire 1 ~ inst|inst|inst43~3_combout $end
$var wire 1 !! inst|PC|inst6|inst|inst2|inst2~0_combout $end
$var wire 1 "! inst|PC|inst6|inst5~q $end
$var wire 1 #! inst|inst3|inst5|inst2~0_combout $end
$var wire 1 $! inst|inst5|Mux3~1_combout $end
$var wire 1 %! inst|inst5|Mux3~2_combout $end
$var wire 1 &! inst|PC|inst8|inst1~combout $end
$var wire 1 '! inst|PC|inst8|inst|inst2|inst2~0_combout $end
$var wire 1 (! inst|PC|inst8|inst5~q $end
$var wire 1 )! inst|PC|inst9|inst|inst2|inst2~0_combout $end
$var wire 1 *! inst|PC|inst9|inst|inst2|inst2~1_combout $end
$var wire 1 +! inst|PC|inst9|inst5~q $end
$var wire 1 ,! inst|inst3|inst7|inst2~0_combout $end
$var wire 1 -! inst|REM|inst7~q $end
$var wire 1 .! inst|inst5|Mux3~3_combout $end
$var wire 1 /! inst|inst5|Mux0~2_combout $end
$var wire 1 0! inst|inst5|Mux3~4_combout $end
$var wire 1 1! inst|inst5|Mux1~5_combout $end
$var wire 1 2! inst|inst5|Mux3~0_combout $end
$var wire 1 3! inst|inst3|inst6|inst2~0_combout $end
$var wire 1 4! inst|REM|inst5~q $end
$var wire 1 5! inst|inst5|Mux3~5_combout $end
$var wire 1 6! inst|inst8~0_combout $end
$var wire 1 7! inst|inst8~1_combout $end
$var wire 1 8! inst|RDM|inst1~q $end
$var wire 1 9! inst|inst|inst1|inst1|inst~0_combout $end
$var wire 1 :! inst|RI|inst1~q $end
$var wire 1 ;! inst|inst|inst36~8_combout $end
$var wire 1 <! inst|inst|inst19~0_combout $end
$var wire 1 =! inst|inst|inst19~1_combout $end
$var wire 1 >! inst|REM|inst3~q $end
$var wire 1 ?! inst|inst5|Mux0~3_combout $end
$var wire 1 @! inst|inst5|Mux2~0_combout $end
$var wire 1 A! inst|inst5|Mux2~1_combout $end
$var wire 1 B! inst|inst5|Mux2~2_combout $end
$var wire 1 C! inst|inst5|Mux2~3_combout $end
$var wire 1 D! inst|inst5|Mux2~4_combout $end
$var wire 1 E! inst|inst5|Mux2~5_combout $end
$var wire 1 F! inst|RDM|inst3~q $end
$var wire 1 G! inst|RI|inst3~q $end
$var wire 1 H! inst|inst|inst|inst|inst14~5_combout $end
$var wire 1 I! inst|inst|inst|inst|inst14~1_combout $end
$var wire 1 J! inst|inst|inst408~combout $end
$var wire 1 K! inst|inst25~q $end
$var wire 1 L! inst|inst|inst|inst|inst14~0_combout $end
$var wire 1 M! inst|inst|inst|inst|inst14~2_combout $end
$var wire 1 N! inst|inst5|Mux6~0_combout $end
$var wire 1 O! inst|inst5|Mux6~1_combout $end
$var wire 1 P! inst|inst5|Mux6~2_combout $end
$var wire 1 Q! inst|inst5|Mux6~3_combout $end
$var wire 1 R! inst|inst5|Mux6~4_combout $end
$var wire 1 S! inst|RDM|inst2~q $end
$var wire 1 T! inst|inst7|inst|inst7|inst3|inst2|inst2~0_combout $end
$var wire 1 U! inst|inst7|inst10|inst46|inst1|inst1|inst5~combout $end
$var wire 1 V! inst|RI|inst~q $end
$var wire 1 W! inst|inst7|inst|inst6|inst3|inst2|inst2~4_combout $end
$var wire 1 X! inst|inst7|inst10|inst46|inst2|inst1|inst5~0_combout $end
$var wire 1 Y! inst|inst7|inst10|inst46|inst3|inst1|inst5~0_combout $end
$var wire 1 Z! inst|inst7|inst10|inst46|inst4|inst1|inst5~0_combout $end
$var wire 1 [! inst|inst7|inst10|inst46|inst5|inst1|inst5~0_combout $end
$var wire 1 \! inst|inst7|inst|inst6|inst3|inst2|inst2~5_combout $end
$var wire 1 ]! inst|inst7|inst|inst6|inst3|inst2|inst2~11_combout $end
$var wire 1 ^! inst|inst7|inst|inst6|inst3|inst2|inst2~6_combout $end
$var wire 1 _! inst|inst7|inst|inst7|inst3|inst2|inst2~4_combout $end
$var wire 1 `! inst|inst7|inst|inst6|inst3|inst2|inst2~12_combout $end
$var wire 1 a! inst|inst7|inst|inst6|inst3|inst2|inst2~7_combout $end
$var wire 1 b! inst|inst7|inst|inst6|inst3|inst2|inst2~8_combout $end
$var wire 1 c! inst|inst7|inst|inst6|inst3|inst2|inst2~9_combout $end
$var wire 1 d! inst|inst7|inst|inst6|inst3|inst2|inst2~10_combout $end
$var wire 1 e! inst|AC|inst5~q $end
$var wire 1 f! inst|inst7|inst|inst7|inst3|inst2|inst2~3_combout $end
$var wire 1 g! inst|inst7|inst|inst5|inst3|inst2|inst2~0_combout $end
$var wire 1 h! inst|inst7|inst|inst5|inst3|inst2|inst2~1_combout $end
$var wire 1 i! inst|inst7|inst|inst5|inst3|inst2|inst2~2_combout $end
$var wire 1 j! inst|inst7|inst|inst5|inst3|inst2|inst2~3_combout $end
$var wire 1 k! inst|AC|inst3~q $end
$var wire 1 l! inst|inst7|inst|inst4|inst3|inst2|inst2~0_combout $end
$var wire 1 m! inst|inst7|inst|inst4|inst3|inst2|inst2~1_combout $end
$var wire 1 n! inst|inst7|inst|inst4|inst3|inst2|inst2~2_combout $end
$var wire 1 o! inst|inst7|inst|inst4|inst3|inst2|inst2~3_combout $end
$var wire 1 p! inst|AC|inst1~q $end
$var wire 1 q! inst|inst7|inst|inst3|inst3|inst2|inst2~0_combout $end
$var wire 1 r! inst|inst7|inst|inst3|inst3|inst2|inst2~1_combout $end
$var wire 1 s! inst|inst7|inst|inst3|inst3|inst2|inst2~2_combout $end
$var wire 1 t! inst|inst7|inst|inst3|inst3|inst2|inst2~3_combout $end
$var wire 1 u! inst|AC|inst6~q $end
$var wire 1 v! inst|inst7|inst|inst2|inst3|inst2|inst2~0_combout $end
$var wire 1 w! inst|inst7|inst|inst2|inst3|inst2|inst2~1_combout $end
$var wire 1 x! inst|inst7|inst|inst2|inst3|inst2|inst2~2_combout $end
$var wire 1 y! inst|inst7|inst|inst2|inst3|inst2|inst2~3_combout $end
$var wire 1 z! inst|AC|inst4~q $end
$var wire 1 {! inst|inst7|inst|inst1|inst3|inst2|inst2~0_combout $end
$var wire 1 |! inst|inst7|inst|inst1|inst3|inst2|inst2~1_combout $end
$var wire 1 }! inst|inst7|inst|inst1|inst3|inst2|inst2~2_combout $end
$var wire 1 ~! inst|inst7|inst|inst1|inst3|inst2|inst2~3_combout $end
$var wire 1 !" inst|AC|inst2~q $end
$var wire 1 "" inst|RI|inst2~q $end
$var wire 1 #" inst|inst7|inst|inst7|inst3|inst2|inst2~2_combout $end
$var wire 1 $" inst|inst7|inst5|inst|inst|inst~combout $end
$var wire 1 %" inst|inst7|inst|inst7|inst3|inst2|inst2~1_combout $end
$var wire 1 &" inst|inst7|inst|inst|inst3|inst2|inst2~0_combout $end
$var wire 1 '" inst|inst7|inst|inst|inst3|inst2|inst2~1_combout $end
$var wire 1 (" inst|inst7|inst|inst|inst3|inst2|inst2~2_combout $end
$var wire 1 )" inst|inst7|inst|inst7|inst3|inst2|inst2~8_combout $end
$var wire 1 *" inst|inst7|inst|inst|inst3|inst2|inst2~3_combout $end
$var wire 1 +" inst|inst7|inst|inst|inst3|inst2|inst2~4_combout $end
$var wire 1 ," inst|AC|inst~q $end
$var wire 1 -" inst|inst7|inst10|inst46|inst8|inst2~0_combout $end
$var wire 1 ." inst|inst7|inst10|inst46|inst1|inst2~0_combout $end
$var wire 1 /" inst|inst7|inst10|inst46|inst2|inst2~0_combout $end
$var wire 1 0" inst|inst7|inst10|inst46|inst3|inst2~0_combout $end
$var wire 1 1" inst|inst7|inst10|inst46|inst4|inst2~0_combout $end
$var wire 1 2" inst|inst7|inst10|inst46|inst5|inst2~0_combout $end
$var wire 1 3" inst|inst7|inst10|inst46|inst6|inst2~0_combout $end
$var wire 1 4" inst|inst7|inst10|inst46|inst7|inst2~0_combout $end
$var wire 1 5" inst|inst7|inst7|inst18~0_combout $end
$var wire 1 6" inst|inst7|inst7|inst18~1_combout $end
$var wire 1 7" inst|inst|inst407~0_combout $end
$var wire 1 8" inst|inst|inst407~1_combout $end
$var wire 1 9" inst|inst12~q $end
$var wire 1 :" inst|RI|inst6~q $end
$var wire 1 ;" inst|inst|inst29~0_combout $end
$var wire 1 <" inst|RI|inst4~q $end
$var wire 1 =" inst|inst|inst|inst|inst14~4_combout $end
$var wire 1 >" inst|inst7|inst9|inst13~0_combout $end
$var wire 1 ?" inst|inst7|inst9|inst13~1_combout $end
$var wire 1 @" inst|inst|inst406~combout $end
$var wire 1 A" inst|inst24~q $end
$var wire 1 B" inst|inst|inst29~1_combout $end
$var wire 1 C" inst|inst|inst29~2_combout $end
$var wire 1 D" inst|inst|inst29~3_combout $end
$var wire 1 E" inst|inst|inst29~4_combout $end
$var wire 1 F" inst|inst|inst29~5_combout $end
$var wire 1 G" inst|inst|inst34~0_combout $end
$var wire 1 H" inst|inst|inst37~0_combout $end
$var wire 1 I" inst|inst3|inst3|inst2~0_combout $end
$var wire 1 J" inst|REM|inst6~q $end
$var wire 1 K" inst|inst5|Mux5~2_combout $end
$var wire 1 L" inst|inst5|Mux5~3_combout $end
$var wire 1 M" inst|inst5|Mux5~0_combout $end
$var wire 1 N" inst|inst5|Mux5~1_combout $end
$var wire 1 O" inst|RDM|inst4~q $end
$var wire 1 P" inst|PC|inst4|inst2~combout $end
$var wire 1 Q" inst|PC|inst4|inst|inst2|inst2~0_combout $end
$var wire 1 R" inst|PC|inst4|inst5~q $end
$var wire 1 S" inst|inst3|inst2|inst2~0_combout $end
$var wire 1 T" inst|REM|inst4~q $end
$var wire 1 U" inst|inst5|Mux1~0_combout $end
$var wire 1 V" inst|inst5|Mux1~1_combout $end
$var wire 1 W" inst|inst5|Mux1~2_combout $end
$var wire 1 X" inst|inst5|Mux1~3_combout $end
$var wire 1 Y" inst|inst5|Mux1~4_combout $end
$var wire 1 Z" inst|RDM|inst5~q $end
$var wire 1 [" inst|RI|inst5~q $end
$var wire 1 \" inst|inst|inst|inst|inst14~3_combout $end
$var wire 1 ]" inst|inst|inst25~0_combout $end
$var wire 1 ^" inst|inst|inst25~1_combout $end
$var wire 1 _" inst|inst|inst25~2_combout $end
$var wire 1 `" inst|inst|inst25~3_combout $end
$var wire 1 a" inst|inst|inst25~4_combout $end
$var wire 1 b" inst|inst|inst43~2_combout $end
$var wire 1 c" inst|inst|inst25~5_combout $end
$var wire 1 d" inst|inst21~combout $end
$var wire 1 e" inst|PC|inst3|inst|inst2|inst2~0_combout $end
$var wire 1 f" inst|PC|inst3|inst|inst2|inst2~1_combout $end
$var wire 1 g" inst|PC|inst3|inst5~q $end
$var wire 1 h" inst|inst3|inst1|inst2~0_combout $end
$var wire 1 i" inst|REM|inst2~q $end
$var wire 1 j" inst|inst5|Mux7~0_combout $end
$var wire 1 k" inst|inst5|Mux7~1_combout $end
$var wire 1 l" inst|inst5|Mux7~2_combout $end
$var wire 1 m" inst|inst5|Mux7~3_combout $end
$var wire 1 n" inst|inst5|Mux7~4_combout $end
$var wire 1 o" inst|inst5|Mux7~5_combout $end
$var wire 1 p" inst|RDM|inst~q $end
$var wire 1 q" inst|PC|inst|inst|inst2|inst2~0_combout $end
$var wire 1 r" inst|PC|inst|inst5~q $end
$var wire 1 s" inst|inst3|inst|inst2~0_combout $end
$var wire 1 t" inst|REM|inst~q $end
$var wire 1 u" inst|inst5|Mux4~0_combout $end
$var wire 1 v" inst|inst5|Mux4~1_combout $end
$var wire 1 w" inst|inst5|Mux4~3_combout $end
$var wire 1 x" inst|inst5|Mux4~4_combout $end
$var wire 1 y" inst|inst5|Mux4~2_combout $end
$var wire 1 z" inst|RDM|inst6~q $end
$var wire 1 {" inst|PC|inst5|inst|inst2|inst2~0_combout $end
$var wire 1 |" inst|PC|inst5|inst5~q $end
$var wire 1 }" inst|PC|inst7|inst|inst2|inst2~0_combout $end
$var wire 1 ~" inst|PC|inst7|inst|inst2|inst2~1_combout $end
$var wire 1 !# inst|PC|inst7|inst5~q $end
$var wire 1 "# inst|inst3|inst4|inst2~0_combout $end
$var wire 1 ## inst|REM|inst1~q $end
$var wire 1 $# inst|inst5|Mux0~8_combout $end
$var wire 1 %# inst|inst5|Mux0~4_combout $end
$var wire 1 &# inst|inst5|Mux0~9_combout $end
$var wire 1 '# inst|inst5|Mux0~10_combout $end
$var wire 1 (# inst|inst5|Mux0~5_combout $end
$var wire 1 )# inst|inst5|Mux0~6_combout $end
$var wire 1 *# inst|inst5|Mux0~7_combout $end
$var wire 1 +# inst|RDM|inst7~q $end
$var wire 1 ,# inst|RI|inst7~q $end
$var wire 1 -# inst|inst|inst4056~3_combout $end
$var wire 1 .# inst|inst|inst4056~2_combout $end
$var wire 1 /# inst|inst23~q $end
$var wire 1 0# inst|inst7|inst|inst7|inst3|inst2|inst2~5_combout $end
$var wire 1 1# inst|inst7|inst|inst7|inst3|inst2|inst2~6_combout $end
$var wire 1 2# inst|inst7|inst|inst7|inst3|inst2|inst2~7_combout $end
$var wire 1 3# inst|inst7|inst|inst7|inst3|inst2|inst2~9_combout $end
$var wire 1 4# inst|inst7|inst10|inst46|inst7|inst1|inst5~0_combout $end
$var wire 1 5# inst|inst7|inst|inst7|inst3|inst2|inst2~10_combout $end
$var wire 1 6# inst|inst7|inst24|inst15~0_combout $end
$var wire 1 7# inst|inst7|inst24|inst15~1_combout $end
$var wire 1 8# inst|inst7|inst24|inst15~2_combout $end
$var wire 1 9# inst|inst11~q $end
$upscope $end
$upscope $end
$enddefinitions $end
#0
$dumpvars
0!
1"
0*
0)
0(
0'
0&
0%
0$
0#
0+
0,
04
03
02
01
00
0/
0.
0-
05
06
0>
0=
0<
0;
0:
09
08
07
0F
0E
0D
0C
0B
0A
0@
0?
0G
xH
0I
1J
xK
1L
1M
1N
0O
0P
0Q
0R
0S
0T
0U
0V
0W
0X
0Y
0Z
0[
0\
0]
0^
0_
0`
0a
0b
0c
0d
0e
0f
0g
0h
0i
0j
0k
0l
0m
0n
0o
0p
0q
0r
0s
0t
1u
1v
0w
0x
0y
0z
0{
0|
0}
0~
0!!
0"!
0#!
0$!
0%!
0&!
0'!
0(!
0)!
0*!
0+!
0,!
0-!
0.!
0/!
00!
11!
02!
03!
04!
05!
06!
07!
08!
09!
0:!
1;!
1<!
1=!
0>!
1?!
0@!
1A!
0B!
0C!
0D!
1E!
0F!
0G!
0H!
0I!
0J!
0K!
0L!
0M!
1N!
0O!
0P!
0Q!
0R!
0S!
1T!
0U!
0V!
0W!
0X!
0Y!
0Z!
0[!
0\!
1]!
0^!
0_!
1`!
0a!
0b!
0c!
0d!
0e!
1f!
0g!
0h!
0i!
0j!
0k!
0l!
0m!
0n!
0o!
0p!
0q!
0r!
0s!
0t!
0u!
0v!
0w!
0x!
0y!
0z!
0{!
0|!
0}!
0~!
0!"
0""
0#"
0$"
0%"
0&"
0'"
0("
0)"
0*"
0+"
0,"
0-"
0."
0/"
00"
01"
02"
03"
04"
05"
06"
07"
08"
09"
0:"
0;"
0<"
0="
0>"
0?"
0@"
0A"
0B"
0C"
0D"
0E"
0F"
0G"
1H"
0I"
0J"
1K"
0L"
1M"
0N"
0O"
0P"
0Q"
0R"
0S"
0T"
0U"
0V"
0W"
1X"
0Y"
0Z"
0["
0\"
1]"
1^"
1_"
0`"
0a"
0b"
0c"
0d"
0e"
0f"
0g"
0h"
0i"
0j"
0k"
0l"
0m"
0n"
0o"
0p"
0q"
0r"
0s"
0t"
0u"
0v"
0w"
0x"
0y"
0z"
0{"
0|"
0}"
0~"
0!#
0"#
0##
0$#
0%#
0&#
0'#
0(#
0)#
0*#
0+#
0,#
0-#
0.#
0/#
00#
01#
02#
03#
04#
05#
06#
07#
18#
09#
$end
#5000
1!
1t
0H
#10000
0"
0!
0u
0t
1H
#15000
1!
1t
0H
1w
1a"
0H"
0<!
17!
1x
0v
1c"
0=!
1q"
1d"
#20000
0!
0t
1H
#25000
1!
1t
0H
1F!
1y
0w
1r"
1g!
1[!
1#!
0]"
19!
07!
0a"
1v
0q"
1e"
1k
1>
1h!
0c"
1f"
1i!
1q"
0d"
0e"
0f"
#30000
0!
0t
1H
#35000
1!
1t
0H
1w
1G!
09!
1z
0x
0v
1-#
0T!
0;!
1^
1/
16#
1G"
16!
1j!
08#
1H"
1=!
1n
1A
1s"
0#!
#40000
0!
0t
1H
#45000
1!
1t
0H
1t"
1{
0y
0w
1'#
1n"
0K"
0N!
1B!
1@!
01!
1b"
0H"
0=!
17!
1]"
0G"
1v
1)#
1C!
0A!
1c"
0s"
1#!
1*#
0E!
0q"
1d"
1e"
1f"
#50000
0!
0t
1H
#55000
1!
1t
0H
1+#
0F!
1w
0r"
1g"
14#
10#
1,!
0g!
0[!
0#!
0c"
1<!
07!
1x
0v
1q"
0k
1j
0>
1=
11#
0h!
0q"
0d"
1=!
12#
0i!
13#
06#
0j!
18#
0n
0A
15#
08#
1l
1?
#60000
0!
0t
1H
#65000
1!
1t
0H
0t"
1-!
1y
0w
0'#
0n"
1j"
1K"
1P!
1N!
0B!
0@!
0*#
0b"
0]"
0<!
17!
1c"
1v
0)#
1k"
1L"
1Q!
0C!
1d"
0c"
0=!
1q"
1o"
1N"
1R!
0q"
0d"
#70000
0!
0t
1H
#75000
1!
1t
0H
0+#
1p"
1O"
1S!
1w
04#
00#
0,!
1s"
1&"
1S"
1v!
1X!
1h"
1{!
1U!
1.#
1G"
07!
0z
0x
0v
01#
1'"
1w!
1|!
02#
1("
1x!
1}!
03#
1*"
1y!
1~!
17#
1q
1r
1D
1E
05#
1+"
16#
0l
1s
0?
1F
#80000
0!
0t
1H
#85000
1!
1t
0H
0{
0y
0w
1,"
1!"
1z!
0.#
1H"
1=!
1<!
1]"
0G"
1v
15"
1-"
1."
1$"
0U!
1/"
0X!
1[
1Z
1Y
1*
1)
1(
0s"
0S"
1U!
1X!
1Y!
#90000
0!
0t
1H
#95000
1!
1t
0H
1i"
0-!
1w
1l"
0j"
0X"
0P!
0N!
1B!
1%!
0L"
1A!
11!
1a"
0H"
0<!
17!
1x
0v
0k"
0Q!
1C!
1.!
0N"
1E!
1c"
1s"
1S"
0=!
0o"
0R!
10!
1q"
1d"
15!
#100000
0!
0t
1H
#105000
1!
1t
0H
0p"
0O"
0S!
1F!
18!
1y
0w
1r"
0s"
0q"
0-"
0&"
0S"
0v!
0X!
0h"
0{!
0U!
1g!
1[!
1#!
1"#
1l!
1Z!
0]"
19!
07!
0a"
1v
0e"
1P"
1k
1>
0."
1U!
0'"
0w!
0|!
1h!
1m!
0c"
0f"
1Q"
0/"
1X!
0}!
0("
0x!
1i!
1n!
1q"
0d"
0Y!
0*"
1e"
0P"
0~!
0y!
1j!
1o!
1f"
0Q"
0r
0q
1n
1o
0E
0D
1A
1B
0+"
0s
0F
#110000
0!
0t
1H
#115000
1!
1t
0H
1w
1:!
1G"
09!
1z
0x
0v
17"
1)"
1W!
1M!
1_
10
1H"
1=!
1}!
1x!
0n!
0m!
0i!
0h!
1b!
0`!
0]!
1>"
1+"
0"#
1s"
1h"
0#!
1n!
1i!
1c!
1^!
1s
1F
1~!
1y!
0o!
0j!
0b!
1r
1q
0o
0n
1E
1D
0B
0A
1o!
1j!
1d!
0c!
1o
1n
1m
1B
1A
1@
0d!
0m
0@
#120000
0!
0t
1H
#125000
1!
1t
0H
1t"
1{
0y
0w
1'#
1n"
1j"
0K"
0B!
1@!
01!
0.!
1b"
0H"
0=!
17!
1]"
0G"
1v
1)#
1k"
0C!
0A!
00!
1c"
1"#
0s"
0h"
1#!
1*#
1o"
0E!
05!
0q"
1d"
0e"
1P"
0f"
1Q"
#130000
0!
0t
1H
#135000
1!
1t
0H
1+#
1p"
0F!
08!
1w
0r"
0g"
1R"
14#
10#
0>"
1,!
1s"
1q"
1-"
1&"
0g!
0[!
0#!
0"#
0l!
0Z!
0c"
1<!
07!
1x
0v
0k
0j
1i
0>
0=
1<
0+"
11#
1."
0U!
1'"
0i!
0n!
0q"
0d"
1=!
0s
0F
15#
12#
1/"
0X!
0}!
1("
06#
1l
1?
0j!
0o!
1Y!
0x!
0n
0o
0A
0B
0~!
1s!
0r
0E
0y!
07#
0q
0D
1t!
17#
1p
1C
#140000
0!
0t
1H
#145000
1!
1t
0H
0i"
1-!
1y
0w
0l"
1X"
1P!
1B!
0%!
0*#
1w"
0n"
0b"
0]"
0<!
17!
1c"
1v
1Q!
1C!
1d"
0c"
0=!
1q"
1R!
0q"
0d"
#150000
0!
0t
1H
#155000
1!
1t
0H
0+#
1S!
1w
04#
00#
1>"
0,!
1h"
1{!
1U!
1.#
1G"
1@"
18"
07!
0z
0x
0v
01#
1?"
1}!
05#
02#
0?"
0l
0?
1~!
1r
1E
#160000
0!
0t
1H
#165000
1!
1t
0H
0{
0y
0w
0,"
0z!
1u!
0.#
1H"
0@"
08"
1=!
1<!
1]"
0G"
1v
05"
0-"
0/"
1X!
10"
0Y!
0[
0Y
1X
0*
0(
1'
1+"
0s"
0h"
1S"
0U!
00"
1Y!
1x!
1Z!
0s!
16#
1s
1F
0}!
0Z!
1s!
1n!
1y!
0t!
0n!
1q
0p
1D
0C
0~!
1t!
1o!
0r
1p
1o
0E
1C
1B
0o!
0o
0B
#170000
0!
0t
1H
#175000
1!
1t
0H
0t"
1T"
0-!
1w
0'#
0w"
0j"
1V"
0P!
1N!
0B!
11!
1x"
0M"
1*#
1a"
0H"
0<!
17!
1x
0v
0)#
0x"
0k"
1Y"
0Q!
0C!
1y"
1c"
1s"
1h"
0S"
0=!
0*#
0y"
0o"
0R!
1q"
1d"
#180000
0!
0t
1H
#185000
1!
1t
0H
0p"
1Z"
0S!
1y
0w
1r"
0s"
0q"
0&"
1a!
1\!
13!
0h"
0."
0{!
1U!
0]"
19!
07!
0a"
1v
1e"
1k
1>
0+"
0'"
0^!
0X!
1}!
0c"
1f"
06#
0s
0F
0("
1b!
0x!
1q"
0d"
1~!
1c!
0e"
1r
1E
0y!
0f"
0q
0D
1d!
1m
1@
#190000
0!
0t
1H
#195000
1!
1t
0H
1w
1["
0G!
0:!
1G"
09!
1z
0x
0v
14#
07"
10"
1."
1-"
0f!
1]!
1[!
1Z!
0Y!
1X!
0U!
0M!
0)"
0W!
1]
0^
0_
1.
0/
00
1H"
1=!
11"
0Z!
1/"
0X!
1U!
1{!
1q!
1^!
0s!
0}!
0>"
0]!
1s"
1S"
03!
12"
0[!
1Y!
1|!
1r!
0^!
0t!
0~!
1s!
1}!
07#
0p
0r
0C
0E
1t!
1~!
17#
1p
1r
1C
1E
#200000
0!
0t
1H
#205000
1!
1t
0H
1t"
1{
0y
0w
1'#
1n"
0V"
1K"
1P!
0N!
01!
1b"
0H"
0=!
17!
1]"
0G"
1v
1)#
0Y"
1Q!
1c"
0s"
0S"
13!
1*#
1R!
0q"
1d"
1e"
1f"
#210000
0!
0t
1H
#215000
1!
1t
0H
1+#
0Z"
1S!
1w
0r"
1g"
04#
10#
1,!
13"
0a!
0\!
03!
1h"
0U!
0c"
1<!
07!
1x
0v
1q"
0k
1j
0>
1=
11#
14#
0b!
1^!
0q"
0d"
1=!
12#
0c!
13#
0d!
0m
0@
15#
1l
1?
#220000
0!
0t
1H
#225000
1!
1t
0H
0t"
1i"
0T"
1-!
1y
0w
0'#
0n"
1j"
0P!
1B!
0@!
1l"
0X"
1M"
1%!
0*#
1L"
0b"
0]"
0<!
17!
1c"
1v
0)#
1k"
0Q!
1C!
1N"
1d"
0c"
0=!
1q"
1o"
0R!
0q"
0d"
#230000
0!
0t
1H
#235000
1!
1t
0H
0+#
1p"
1O"
0S!
1w
04#
00#
14"
0,!
1s"
0-"
1&"
1S"
0/"
1v!
1X!
0h"
1U!
1.#
1G"
07!
0z
0x
0v
01#
0U!
1'"
0Y!
1w!
02#
1("
1x!
03#
1*"
1y!
1q
1D
05#
1+"
16#
0l
1s
0?
1F
#240000
0!
0t
1H
#245000
1!
1t
0H
0{
0y
0w
1,"
1z!
0.#
1H"
1=!
1<!
1]"
0G"
1v
15"
1-"
1/"
0X!
1[
1Y
1*
1(
0s"
1h"
1U!
1Y!
#250000
0!
0t
1H
#255000
1!
1t
0H
1T"
0-!
1w
0l"
0j"
1V"
0M"
0K"
0B!
1@!
0L"
1A!
11!
1.!
1a"
0H"
0<!
17!
1x
0v
0k"
1Y"
0N"
0C!
0A!
1E!
10!
1c"
1s"
0h"
0=!
0o"
0E!
15!
1q"
1d"
#260000
0!
0t
1H
#265000
1!
1t
0H
0p"
1Z"
0O"
18!
1y
0w
1r"
0s"
0q"
03"
1a!
1\!
13!
0S"
1X!
1"#
01"
1l!
1Z!
0]"
19!
07!
0a"
1v
0e"
0P"
1|
1k
1>
14#
04"
1b!
0^!
02"
1[!
1m!
0c"
0f"
0Q"
1{"
1c!
1n!
1q"
0d"
1e"
1P"
0|
1d!
1o!
1f"
1Q"
0{"
1m
1o
1@
1B
#270000
0!
0t
1H
#275000
1!
1t
0H
1w
1:!
1G"
09!
1z
0x
0v
1_!
1_
10
1H"
1=!
0&"
0{!
0v!
0q!
0l!
0a!
0"#
1s"
1h"
1S"
03!
0'"
0|!
0w!
0r!
0m!
0b!
0("
0}!
0x!
0s!
0n!
0c!
0*"
0~!
0y!
0t!
0o!
0d!
07#
0r
0q
0p
0o
0m
0E
0D
0C
0B
0@
0+"
06#
0s
0F
18#
#280000
0!
0t
1H
#285000
1!
1t
0H
1t"
1{
0y
0w
1'#
1n"
1j"
0V"
1P!
01!
0.!
1b"
0H"
0=!
17!
1]"
0G"
1v
1)#
1k"
0Y"
1Q!
00!
1c"
1"#
0s"
0h"
0S"
13!
1*#
1o"
1R!
05!
0q"
1d"
0e"
0P"
1|
0f"
0Q"
1{"
#290000
0!
0t
1H
